<?xml version="1.0" encoding="utf-8"?>
<!-- Generator: Adobe Illustrator 16.0.0, SVG Export Plug-In . SVG Version: 6.00 Build 0)  -->
<!DOCTYPE svg PUBLIC "-//W3C//DTD SVG 1.1//EN" "http://www.w3.org/Graphics/SVG/1.1/DTD/svg11.dtd">
<svg version="1.1" xmlns="http://www.w3.org/2000/svg" xmlns:xlink="http://www.w3.org/1999/xlink" x="0px" y="0px" width="50px"
	 height="22.6px" viewBox="0 0 50 22.6" enable-background="new 0 0 50 22.6" xml:space="preserve">
<g id="Layer_1">
</g>
<g id="Layer_12">
</g>
<g id="Layer_11">
</g>
<g id="Layer_10">
</g>
<g id="Layer_9">
	<g>
		<path d="M44.4,4.6H3.8c-1.2,0-2.2,1-2.2,2.2v10.6c0,1.2,1,2.2,2.2,2.2h40.6c1.2,0,2.2-1,2.2-2.2V6.9C46.6,5.6,45.6,4.6,44.4,4.6z
			 M46.1,17.5c0,1-0.8,1.7-1.7,1.7H3.8c-0.9,0-1.7-0.8-1.7-1.7V6.9c0-0.9,0.8-1.7,1.7-1.7v0h40.6c1,0,1.7,0.8,1.7,1.7V17.5z"/>
		<path d="M16.4,9c0.1-0.1,0.2-0.3,0.2-0.5c0-0.2,0-0.3-0.2-0.5c-0.1-0.1-0.3-0.2-0.5-0.2h-0.4v1.3h0.4C16.1,9.1,16.3,9.1,16.4,9z
			 M15.7,8h0.2C16,8,16.2,8,16.3,8.1c0.1,0.1,0.1,0.2,0.1,0.4c0,0.2-0.1,0.3-0.1,0.4C16.2,8.9,16.1,9,15.9,9h-0.2V8z"/>
		<rect x="16.8" y="7.9" width="0.2" height="1.3"/>
		<path d="M17.6,9c-0.1,0-0.1,0-0.2-0.1c-0.1,0-0.1-0.1-0.1-0.2l-0.2,0.1c0,0.1,0.1,0.2,0.2,0.3c0.1,0.1,0.2,0.1,0.3,0.1
			c0,0,0.1,0,0.2-0.1c0.1,0,0.1,0,0.1-0.1C18,9,18,9,18.1,8.9c0,0,0.1-0.1,0.1-0.2c0-0.1,0-0.1-0.1-0.2c0-0.1-0.1-0.1-0.1-0.1
			c-0.1,0-0.1-0.1-0.1-0.1c-0.1,0-0.1,0-0.2-0.1c-0.1,0-0.1,0-0.2-0.1c0-0.1-0.1-0.1-0.1-0.1c0-0.1,0-0.1,0.1-0.2
			c0.1,0,0.1-0.1,0.2-0.1c0.1,0,0.1,0,0.2,0.1c0,0,0.1,0.1,0.1,0.1L18,8C18,8,18,7.9,17.9,7.9c-0.1-0.1-0.1-0.1-0.3-0.1
			c-0.1,0-0.2,0.1-0.3,0.1c-0.1,0.1-0.1,0.2-0.1,0.2c0,0.1,0,0.2,0.1,0.2c0.1,0.1,0.2,0.1,0.3,0.1c0.1,0,0.2,0.1,0.2,0.1
			c0.1,0,0.1,0.1,0.1,0.2c0,0.1,0,0.1-0.1,0.2C17.8,8.9,17.7,9,17.6,9z"/>
		<path d="M18.4,8.6h0.3c0.1,0,0.2-0.1,0.3-0.1c0.1-0.1,0.1-0.2,0.1-0.3C19.1,8.1,19.1,8,19,8c-0.1-0.1-0.2-0.1-0.3-0.1h-0.4v1.3
			h0.2V8.6z M18.4,8h0.3c0.1,0,0.1,0,0.2,0.1c0,0.1,0.1,0.1,0.1,0.2c0,0.1,0,0.1-0.1,0.2c0,0-0.1,0.1-0.2,0.1h-0.3V8z"/>
		<path d="M19.9,9.1c0.2,0,0.3-0.1,0.5-0.2c0.1-0.1,0.2-0.3,0.2-0.5c0-0.2-0.1-0.3-0.2-0.5c-0.1-0.1-0.3-0.2-0.5-0.2
			c-0.2,0-0.3,0.1-0.5,0.2c-0.1,0.1-0.2,0.3-0.2,0.5c0,0.2,0.1,0.3,0.2,0.5C19.5,9.1,19.7,9.1,19.9,9.1z M19.5,8.1
			C19.6,8,19.7,8,19.9,8C20,8,20.1,8,20.2,8.1c0.1,0.1,0.2,0.2,0.2,0.4c0,0.2-0.1,0.3-0.2,0.4C20.1,9,20,9,19.9,9
			c-0.1,0-0.3-0.1-0.3-0.2c-0.1-0.1-0.1-0.2-0.2-0.4C19.4,8.3,19.4,8.2,19.5,8.1z"/>
		<polygon points="20.9,8.3 20.9,8.1 21.6,9.1 21.7,9.1 21.7,7.9 21.6,7.9 21.6,8.6 21.6,8.9 20.9,7.9 20.8,7.9 20.8,9.1 20.9,9.1 
					"/>
		<polygon points="22.3,7.5 22.1,7.5 22,7.7 22.2,7.7 		"/>
		<rect x="22.1" y="7.9" width="0.2" height="1.3"/>
		<polygon points="23.3,7.9 22.9,8.9 22.6,7.9 22.4,7.9 22.8,9.1 23,9.1 23.4,7.9 		"/>
		<polygon points="24.4,9 23.8,9 23.8,8.6 24.3,8.6 24.3,8.4 23.8,8.4 23.8,8 24.4,8 24.4,7.9 23.6,7.9 23.6,9.1 24.4,9.1 		"/>
		<polygon points="25.3,9 24.8,9 24.8,7.9 24.6,7.9 24.6,9.1 24.6,9.1 25.3,9.1 		"/>
		<polygon points="27,9.1 27,7.9 26.8,7.9 26.8,8.6 26.8,8.9 26.2,7.9 26,7.9 26,9.1 26.1,9.1 26.1,8.3 26.1,8.1 26.8,9.1 		"/>
		<path d="M27.8,9.1c0.2,0,0.3-0.1,0.5-0.2c0.1-0.1,0.2-0.3,0.2-0.5c0-0.2,0-0.3-0.2-0.5c-0.1-0.1-0.3-0.2-0.5-0.2
			c-0.2,0-0.3,0.1-0.5,0.2c-0.1,0.1-0.2,0.3-0.2,0.5c0,0.2,0.1,0.3,0.2,0.5C27.5,9.1,27.7,9.1,27.8,9.1z M27.5,8.1
			C27.6,8,27.7,8,27.8,8C28,8,28.1,8,28.2,8.1c0.1,0.1,0.2,0.2,0.2,0.4c0,0.2-0.1,0.3-0.2,0.4C28.1,9,28,9,27.8,9
			c-0.1,0-0.3-0.1-0.3-0.2c-0.1-0.1-0.1-0.2-0.2-0.4C27.3,8.3,27.4,8.2,27.5,8.1z"/>
		<path d="M17.5,13.1h1.6c0,0.4-0.2,0.7-0.4,0.9c-0.3,0.3-0.7,0.5-1.2,0.5c-0.4,0-0.8-0.2-1.2-0.5c-0.3-0.3-0.5-0.7-0.5-1.2
			s0.2-0.9,0.5-1.3c0.3-0.3,0.7-0.5,1.2-0.5c0.5,0,0.9,0.2,1.2,0.5l0.4-0.4c-0.2-0.2-0.4-0.3-0.7-0.5c-0.3-0.1-0.6-0.2-0.9-0.2
			c-0.6,0-1.1,0.2-1.6,0.7c-0.4,0.4-0.7,1-0.7,1.6c0,0.6,0.2,1.2,0.7,1.6c0.4,0.5,0.9,0.7,1.6,0.7s1.2-0.2,1.6-0.6
			c0.3-0.4,0.5-0.8,0.5-1.4c0-0.1,0-0.2,0-0.3h-2.1V13.1z"/>
		<path d="M21.4,11.9c-0.4,0-0.8,0.2-1.1,0.4c-0.3,0.3-0.4,0.7-0.4,1.1c0,0.4,0.1,0.8,0.4,1.1c0.3,0.3,0.6,0.4,1.1,0.4
			c0.4,0,0.8-0.2,1.1-0.4c0.3-0.3,0.4-0.7,0.4-1.1c0-0.4-0.1-0.8-0.4-1.1C22.2,12,21.8,11.9,21.4,11.9z M22.1,14.2
			c-0.2,0.2-0.4,0.3-0.7,0.3c-0.3,0-0.5-0.1-0.7-0.3c-0.2-0.2-0.3-0.4-0.3-0.8c0-0.3,0.1-0.6,0.3-0.8c0.2-0.2,0.4-0.3,0.7-0.3
			c0.3,0,0.5,0.1,0.7,0.3s0.3,0.4,0.3,0.8C22.4,13.8,22.3,14,22.1,14.2z"/>
		<path d="M24.6,11.9c-0.4,0-0.8,0.2-1.1,0.4c-0.3,0.3-0.4,0.7-0.4,1.1c0,0.4,0.1,0.8,0.4,1.1c0.3,0.3,0.6,0.4,1.1,0.4
			c0.4,0,0.8-0.2,1.1-0.4c0.3-0.3,0.4-0.7,0.4-1.1c0-0.4-0.1-0.8-0.4-1.1C25.4,12,25.1,11.9,24.6,11.9z M25.3,14.2
			c-0.2,0.2-0.4,0.3-0.7,0.3c-0.3,0-0.5-0.1-0.7-0.3c-0.2-0.2-0.3-0.4-0.3-0.8c0-0.3,0.1-0.6,0.3-0.8c0.2-0.2,0.4-0.3,0.7-0.3
			c0.3,0,0.5,0.1,0.7,0.3c0.2,0.2,0.3,0.4,0.3,0.8C25.6,13.8,25.5,14,25.3,14.2z"/>
		<path d="M28.8,12.4L28.8,12.4c-0.1-0.2-0.3-0.3-0.4-0.4c-0.2-0.1-0.4-0.1-0.6-0.1c-0.4,0-0.7,0.2-1,0.4c-0.3,0.3-0.4,0.7-0.4,1.1
			c0,0.4,0.1,0.8,0.4,1.1c0.3,0.3,0.6,0.4,1,0.4c0.2,0,0.4-0.1,0.6-0.2c0.2-0.1,0.3-0.2,0.4-0.4h0v0.3c0,0.3-0.1,0.6-0.3,0.7
			c-0.2,0.2-0.4,0.3-0.7,0.3c-0.2,0-0.4-0.1-0.5-0.2c-0.2-0.1-0.3-0.2-0.3-0.4l-0.5,0.2c0.1,0.2,0.3,0.4,0.5,0.6
			c0.2,0.2,0.5,0.3,0.9,0.3c0.4,0,0.8-0.1,1.1-0.4c0.3-0.3,0.4-0.7,0.4-1.2v-2.8h-0.5V12.4z M28.5,14.2c-0.2,0.2-0.4,0.3-0.7,0.3
			c-0.3,0-0.5-0.1-0.7-0.3c-0.2-0.2-0.3-0.4-0.3-0.8c0-0.3,0.1-0.6,0.3-0.8c0.2-0.2,0.4-0.3,0.7-0.3c0.3,0,0.5,0.1,0.7,0.3
			c0.2,0.2,0.3,0.5,0.3,0.8C28.7,13.8,28.7,14,28.5,14.2z"/>
		<rect x="29.8" y="10.6" width="0.6" height="4.3"/>
		<path d="M32.2,11.9c-0.5,0-0.8,0.2-1.1,0.5c-0.3,0.3-0.4,0.7-0.4,1.1c0,0.4,0.1,0.8,0.4,1.1c0.3,0.3,0.6,0.4,1.1,0.4
			c0.3,0,0.6-0.1,0.8-0.2c0.2-0.2,0.4-0.3,0.5-0.6L33,14c-0.2,0.3-0.4,0.5-0.8,0.5c-0.2,0-0.4-0.1-0.6-0.3c-0.2-0.2-0.3-0.4-0.3-0.7
			h2.3v-0.1c0-0.5-0.1-0.9-0.4-1.2C33,12,32.6,11.9,32.2,11.9z M31.3,13.1c0.1-0.2,0.2-0.4,0.3-0.5c0.1-0.1,0.3-0.2,0.5-0.2
			c0.3,0,0.5,0.1,0.6,0.2c0.2,0.1,0.2,0.3,0.2,0.5H31.3z"/>
		<path d="M36.7,10.6h-1.5v4.3h0.6v-1.7h0.9c0.4,0,0.7-0.1,1-0.4c0.3-0.2,0.4-0.6,0.4-0.9s-0.1-0.7-0.4-0.9
			C37.4,10.7,37.1,10.6,36.7,10.6z M37.3,12.4c-0.1,0.2-0.3,0.2-0.6,0.2h-0.9v-1.5h0.9c0.2,0,0.4,0.1,0.6,0.2
			c0.1,0.2,0.2,0.3,0.2,0.5S37.4,12.3,37.3,12.4z"/>
		<rect x="38.4" y="10.6" width="0.6" height="4.3"/>
		<path d="M40.6,11.9c-0.3,0-0.6,0.1-0.8,0.2c-0.2,0.2-0.3,0.3-0.4,0.5l0.5,0.2c0.1-0.1,0.1-0.2,0.3-0.3c0.1-0.1,0.3-0.1,0.4-0.1
			c0.2,0,0.4,0.1,0.6,0.2c0.1,0.1,0.2,0.3,0.2,0.5v0.1c-0.2-0.1-0.5-0.2-0.8-0.2c-0.4,0-0.7,0.1-0.9,0.3c-0.2,0.2-0.4,0.4-0.4,0.8
			c0,0.3,0.1,0.5,0.3,0.7c0.2,0.2,0.5,0.3,0.8,0.3c0.4,0,0.7-0.2,1-0.5V15h0.5v-1.8c0-0.4-0.1-0.7-0.4-0.9
			C41.3,12,41,11.9,40.6,11.9z M41.1,14.3c-0.2,0.2-0.4,0.3-0.6,0.3c-0.2,0-0.3-0.1-0.4-0.1c-0.1-0.1-0.2-0.2-0.2-0.3
			c0-0.2,0.1-0.3,0.2-0.4c0.1-0.1,0.3-0.2,0.6-0.2c0.3,0,0.6,0.1,0.7,0.2C41.4,13.9,41.3,14.1,41.1,14.3z"/>
		<polygon points="43.5,14.1 42.6,12 42,12 43.2,14.7 42.6,16.2 43.1,16.2 45,12 44.4,12 		"/>
		<path d="M9.8,12.8c-0.6-0.6-1.2-1.2-1.8-1.8C7.1,10,6.1,9,5.2,8.1C5.1,8,5.1,8,5.1,8.1C4.9,8.2,4.9,8.4,4.9,8.5c0,1.4,0,2.8,0,4.1
			c0,0.6,0,1.2,0,1.8c0,0.8,0,1.6,0,2.4c0,0.2,0.1,0.3,0.2,0.5c0.1,0.1,0.2,0.1,0.2,0c1.5-1.5,2.9-3,4.4-4.4
			C9.9,12.9,9.9,12.8,9.8,12.8z"/>
		<path d="M5.5,8c1.5,1.6,3,3.1,4.5,4.6c0.1,0.1,0.1,0.1,0.1,0c0.4-0.4,0.8-0.8,1.3-1.3c0.1-0.1,0.1-0.1,0-0.1
			C9.5,10.1,7.6,9.1,5.7,8C5.6,8,5.5,7.9,5.5,8C5.5,8,5.5,8,5.5,8z"/>
		<path d="M5.9,17.3C5.9,17.3,5.9,17.3,5.9,17.3C5.9,17.3,5.9,17.3,5.9,17.3C5.9,17.3,5.9,17.3,5.9,17.3z"/>
		<path d="M11.2,14.2c-0.3-0.4-0.7-0.7-1.1-1.1c-0.1-0.1-0.1-0.1-0.2,0c-1.4,1.4-2.7,2.7-4.1,4.1c1.8-1,3.5-1.9,5.3-2.9
			C11.3,14.3,11.3,14.3,11.2,14.2z"/>
		<path d="M13.4,12.4c-0.5-0.3-1.1-0.6-1.6-0.9c-0.1,0-0.1,0-0.2,0c-0.4,0.4-0.9,0.9-1.3,1.3c-0.1,0.1-0.1,0.1,0,0.1
			c0.4,0.4,0.8,0.8,1.1,1.2c0.1,0.1,0.1,0.1,0.2,0c0.5-0.3,1.1-0.6,1.6-0.9c0.1-0.1,0.2-0.1,0.3-0.2c0.1-0.1,0.2-0.2,0.2-0.3
			C13.7,12.5,13.6,12.4,13.4,12.4z"/>
	</g>
</g>
<g id="Layer_7">
</g>
<g id="Layer_6">
</g>
<g id="Layer_5">
</g>
<g id="Layer_4">
</g>
<g id="Layer_2">
</g>
</svg>
