<?xml version="1.0" encoding="utf-8"?>
<!-- Generator: Adobe Illustrator 16.0.0, SVG Export Plug-In . SVG Version: 6.00 Build 0)  -->
<!DOCTYPE svg PUBLIC "-//W3C//DTD SVG 1.1//EN" "http://www.w3.org/Graphics/SVG/1.1/DTD/svg11.dtd">
<svg version="1.1" xmlns="http://www.w3.org/2000/svg" xmlns:xlink="http://www.w3.org/1999/xlink" x="0px" y="0px" width="50px"
	 height="50px" viewBox="0 0 50 50" enable-background="new 0 0 50 50" xml:space="preserve">
<g id="Layer_1">
</g>
<g id="Layer_12">
</g>
<g id="Layer_11">
</g>
<g id="Layer_10">
</g>
<g id="Layer_9">
</g>
<g id="Layer_7">
</g>
<g id="Layer_6">
</g>
<g id="Layer_5">
</g>
<g id="Layer_4">
	<g>
		<path fill="#010002" d="M38.9,3H11.3C6.7,3,3,6.7,3,11.3v27.7c0,4.6,3.7,8.3,8.3,8.3h27.7c4.6,0,8.3-3.7,8.3-8.3V11.3
			C47.2,6.7,43.5,3,38.9,3z M38.7,30.1c-0.1,1.8-1.5,4.2-3.5,4.5c-6.3,0.5-13.7,0.4-20.2,0c-2-0.3-3.4-2.7-3.5-4.5
			c-0.3-3.9-0.3-6.1,0-9.9c0.2-1.8,1.5-4.3,3.5-4.5c6.4-0.5,13.9-0.4,20.2,0c2.3,0.1,3.4,2.4,3.5,4.2C39,23.8,39,26.2,38.7,30.1z"/>
		<polygon fill="#010002" points="22.3,30.6 30.6,25.1 22.3,19.6 		"/>
	</g>
</g>
<g id="Layer_2">
</g>
</svg>
