<?xml version="1.0" encoding="utf-8"?>
<!-- Generator: Adobe Illustrator 16.0.0, SVG Export Plug-In . SVG Version: 6.00 Build 0)  -->
<!DOCTYPE svg PUBLIC "-//W3C//DTD SVG 1.1//EN" "http://www.w3.org/Graphics/SVG/1.1/DTD/svg11.dtd">
<svg version="1.1" xmlns="http://www.w3.org/2000/svg" xmlns:xlink="http://www.w3.org/1999/xlink" x="0px" y="0px" width="50px"
	 height="19px" viewBox="0 0 50 19" enable-background="new 0 0 50 19" xml:space="preserve">
<g id="Layer_1">
</g>
<g id="Layer_12">
</g>
<g id="Layer_11">
</g>
<g id="Layer_10">
</g>
<g id="Layer_9">
	<g>
		<g>
			<g>
				<path fill="#A6A6A6" d="M43.7,2.2H6.3c-0.1,0-0.3,0-0.4,0c-0.1,0-0.2,0-0.3,0c-0.3,0-0.5,0-0.7,0.1c-0.2,0-0.5,0.1-0.7,0.2
					C3.8,2.7,3.6,2.8,3.5,3C3.3,3.2,3.1,3.4,3,3.6C2.9,3.8,2.8,4.1,2.8,4.3c0,0.2-0.1,0.5-0.1,0.7c0,0.1,0,0.2,0,0.3V14
					c0,0.1,0,0.2,0,0.3c0,0.3,0,0.5,0.1,0.7c0,0.2,0.1,0.5,0.2,0.7c0.1,0.2,0.3,0.4,0.4,0.6c0.2,0.2,0.4,0.3,0.6,0.4
					C4.3,17,4.5,17,4.8,17.1c0.2,0,0.5,0.1,0.7,0.1c0.1,0,0.2,0,0.3,0c0.1,0,0.3,0,0.4,0h37.5c0.1,0,0.3,0,0.4,0c0.1,0,0.2,0,0.3,0
					c0.3,0,0.5,0,0.7-0.1c0.2,0,0.5-0.1,0.7-0.2c0.2-0.1,0.4-0.3,0.6-0.4c0.2-0.2,0.3-0.4,0.4-0.6c0.1-0.2,0.2-0.5,0.2-0.7
					s0.1-0.5,0.1-0.7c0-0.1,0-0.2,0-0.3c0-0.1,0-0.3,0-0.4V5.8c0-0.1,0-0.3,0-0.4c0-0.1,0-0.2,0-0.3c0-0.3,0-0.5-0.1-0.7
					S47.1,3.8,47,3.6c-0.2-0.4-0.6-0.8-1-1c-0.2-0.1-0.5-0.2-0.7-0.2c-0.2,0-0.5-0.1-0.7-0.1c-0.1,0-0.2,0-0.3,0
					C44,2.2,43.9,2.2,43.7,2.2L43.7,2.2z"/>
				<path d="M5.9,16.8c-0.1,0-0.2,0-0.3,0c-0.2,0-0.5,0-0.7-0.1c-0.2,0-0.4-0.1-0.6-0.2c-0.2-0.1-0.4-0.2-0.5-0.4
					c-0.2-0.2-0.3-0.3-0.4-0.5c-0.1-0.2-0.2-0.4-0.2-0.6c0-0.2-0.1-0.5-0.1-0.7C3,14.3,3,14,3,14V5.4c0,0,0-0.3,0-0.3
					c0-0.2,0-0.5,0.1-0.7c0-0.2,0.1-0.4,0.2-0.6c0.1-0.2,0.2-0.4,0.4-0.5C3.8,3.1,4,2.9,4.2,2.8c0.2-0.1,0.4-0.2,0.6-0.2
					c0.2,0,0.5-0.1,0.7-0.1l0.3,0h38.3l0.3,0c0.2,0,0.5,0,0.7,0.1c0.2,0,0.4,0.1,0.6,0.2c0.4,0.2,0.7,0.5,0.9,0.9
					c0.1,0.2,0.2,0.4,0.2,0.6c0,0.2,0.1,0.5,0.1,0.7c0,0.1,0,0.2,0,0.3c0,0.1,0,0.3,0,0.4v7.8c0,0.1,0,0.3,0,0.4c0,0.1,0,0.2,0,0.3
					c0,0.2,0,0.5-0.1,0.7c0,0.2-0.1,0.4-0.2,0.6c-0.1,0.2-0.2,0.4-0.4,0.5c-0.2,0.2-0.3,0.3-0.5,0.4c-0.2,0.1-0.4,0.2-0.6,0.2
					c-0.2,0-0.5,0.1-0.7,0.1c-0.1,0-0.2,0-0.3,0l-0.4,0L5.9,16.8z"/>
			</g>
			<g id="_Group_">
				<g id="_Group_2">
					<g id="_Group_3">
						<path id="_Path_" fill="#FFFFFF" d="M11.9,9.8c0-0.6,0.3-1.2,0.9-1.5c-0.3-0.5-0.9-0.8-1.5-0.8c-0.6-0.1-1.2,0.4-1.6,0.4
							C9.5,7.8,9,7.5,8.4,7.5c-0.7,0-1.3,0.4-1.7,1C6,9.7,6.6,11.6,7.3,12.6c0.3,0.5,0.7,1,1.3,1c0.5,0,0.7-0.3,1.3-0.3
							c0.6,0,0.8,0.3,1.3,0.3c0.6,0,0.9-0.5,1.2-1c0.2-0.4,0.4-0.7,0.6-1.2C12.4,11.2,11.9,10.5,11.9,9.8z"/>
						<path id="_Path_2" fill="#FFFFFF" d="M10.9,6.8c0.3-0.4,0.5-0.8,0.4-1.3c-0.5,0-0.9,0.3-1.2,0.6C9.8,6.5,9.7,6.9,9.7,7.4
							C10.2,7.4,10.6,7.2,10.9,6.8z"/>
					</g>
				</g>
				<g>
					<path fill="#FFFFFF" d="M18.5,12.4h-1.8l-0.4,1.3h-0.7L17.2,9H18l1.7,4.6h-0.8L18.5,12.4z M16.9,11.8h1.4l-0.7-2h0L16.9,11.8z"
						/>
					<path fill="#FFFFFF" d="M23.3,11.9c0,1-0.6,1.7-1.4,1.7c-0.4,0-0.9-0.2-1.1-0.6h0v1.7h-0.7v-4.5h0.7v0.6h0
						c0.2-0.4,0.6-0.6,1.1-0.6C22.7,10.2,23.3,10.9,23.3,11.9z M22.5,11.9c0-0.7-0.4-1.1-0.9-1.1c-0.5,0-0.9,0.5-0.9,1.1
						c0,0.7,0.4,1.1,0.9,1.1C22.2,13.1,22.5,12.6,22.5,11.9z"/>
					<path fill="#FFFFFF" d="M27,11.9c0,1-0.6,1.7-1.4,1.7c-0.4,0-0.9-0.2-1.1-0.6h0v1.7h-0.7v-4.5h0.7v0.6h0
						c0.2-0.4,0.6-0.6,1.1-0.6C26.4,10.2,27,10.9,27,11.9z M26.3,11.9c0-0.7-0.4-1.1-0.9-1.1c-0.5,0-0.9,0.5-0.9,1.1
						c0,0.7,0.4,1.1,0.9,1.1C25.9,13.1,26.3,12.6,26.3,11.9L26.3,11.9z"/>
					<path fill="#FFFFFF" d="M29.4,12.3c0.1,0.5,0.5,0.8,1.1,0.8c0.6,0,1-0.3,1-0.7c0-0.4-0.3-0.6-0.9-0.7l-0.6-0.1
						c-0.9-0.2-1.2-0.6-1.2-1.2c0-0.8,0.7-1.3,1.7-1.3c1,0,1.6,0.5,1.7,1.3h-0.7c0-0.5-0.4-0.7-1-0.7c-0.6,0-0.9,0.3-0.9,0.7
						c0,0.3,0.2,0.5,0.8,0.7l0.5,0.1c1,0.2,1.3,0.6,1.3,1.3c0,0.9-0.7,1.4-1.8,1.4c-1,0-1.7-0.5-1.8-1.4H29.4z"/>
					<path fill="#FFFFFF" d="M33.8,9.4v0.8h0.6v0.5h-0.6v1.9c0,0.3,0.1,0.4,0.4,0.4c0.1,0,0.2,0,0.2,0v0.5c-0.1,0-0.3,0-0.4,0
						c-0.7,0-1-0.3-1-0.9v-1.9h-0.5v-0.5h0.5V9.4H33.8z"/>
					<path fill="#FFFFFF" d="M34.8,11.9c0-1.1,0.6-1.7,1.6-1.7c1,0,1.6,0.7,1.6,1.7c0,1.1-0.6,1.7-1.6,1.7
						C35.4,13.6,34.8,13,34.8,11.9z M37.3,11.9c0-0.7-0.3-1.2-0.9-1.2c-0.6,0-0.9,0.4-0.9,1.2c0,0.7,0.3,1.2,0.9,1.2
						C36.9,13.1,37.3,12.6,37.3,11.9L37.3,11.9z"/>
					<path fill="#FFFFFF" d="M38.5,10.2h0.7v0.6h0c0.1-0.4,0.4-0.6,0.8-0.6c0.1,0,0.2,0,0.2,0v0.6c-0.1,0-0.2,0-0.3,0
						c-0.4,0-0.7,0.3-0.7,0.7c0,0,0,0.1,0,0.1v2h-0.7V10.2z"/>
					<path fill="#FFFFFF" d="M43.5,12.6c-0.1,0.6-0.7,1-1.5,1c-1,0-1.6-0.7-1.6-1.7c0-1.1,0.6-1.7,1.6-1.7c0.9,0,1.5,0.6,1.5,1.7
						v0.2h-2.4v0c0,0.5,0.3,0.9,0.8,1c0,0,0.1,0,0.1,0c0.3,0,0.7-0.2,0.8-0.5H43.5z M41.1,11.6h1.7c0-0.4-0.3-0.8-0.8-0.9
						c0,0,0,0-0.1,0C41.5,10.7,41.1,11.1,41.1,11.6C41.1,11.6,41.1,11.6,41.1,11.6z"/>
				</g>
			</g>
		</g>
		<g id="_Group_4">
			<g>
				<path fill="#FFFFFF" d="M16,7.7V5.5h0.9c0.4,0,0.7,0.2,0.7,0.6c0,0.2-0.2,0.4-0.4,0.5v0c0.3,0,0.5,0.3,0.5,0.5
					c0,0.4-0.3,0.6-0.8,0.6H16z M16.3,6.4h0.4c0.3,0,0.5-0.1,0.5-0.3c0-0.2-0.2-0.3-0.4-0.3h-0.5V6.4z M16.8,7.4
					c0.3,0,0.5-0.1,0.5-0.4c0-0.2-0.2-0.4-0.5-0.4h-0.5v0.7H16.8z"/>
				<path fill="#FFFFFF" d="M18,7.2c0-0.3,0.2-0.5,0.6-0.5l0.5,0V6.6c0-0.2-0.1-0.3-0.3-0.3c-0.2,0-0.3,0.1-0.3,0.2h-0.3
					c0-0.3,0.3-0.5,0.7-0.5c0.4,0,0.7,0.2,0.7,0.6v1.1h-0.3V7.5h0c-0.1,0.2-0.3,0.3-0.5,0.3C18.3,7.8,18.1,7.6,18,7.2
					C18,7.3,18,7.3,18,7.2z M19.1,7.1V7l-0.4,0c-0.2,0-0.3,0.1-0.3,0.2c0,0.2,0.1,0.2,0.3,0.2C18.9,7.5,19.1,7.3,19.1,7.1
					C19.1,7.1,19.1,7.1,19.1,7.1L19.1,7.1z"/>
				<path fill="#FFFFFF" d="M19.9,5.5c0-0.1,0.1-0.2,0.2-0.2c0.1,0,0.2,0.1,0.2,0.2c0,0.1-0.1,0.2-0.2,0.2c0,0,0,0,0,0
					C20,5.8,19.9,5.7,19.9,5.5C19.9,5.6,19.9,5.5,19.9,5.5z M20,6h0.3v1.7H20V6z"/>
				<path fill="#FFFFFF" d="M21.4,7.1l-0.4,0.6h-0.4l0.6-0.8L20.7,6h0.4l0.4,0.6h0L21.8,6h0.4l-0.6,0.8l0.6,0.8h-0.4L21.4,7.1
					L21.4,7.1z"/>
				<path fill="#FFFFFF" d="M22.5,7.2c0-0.3,0.2-0.5,0.6-0.5l0.5,0V6.6c0-0.2-0.1-0.3-0.3-0.3c-0.2,0-0.3,0.1-0.3,0.2h-0.3
					c0-0.3,0.3-0.5,0.7-0.5c0.4,0,0.7,0.2,0.7,0.6v1.1h-0.3V7.5h0c-0.1,0.2-0.3,0.3-0.5,0.3C22.8,7.8,22.5,7.6,22.5,7.2
					C22.5,7.3,22.5,7.3,22.5,7.2z M23.6,7.1V7l-0.4,0c-0.2,0-0.3,0.1-0.3,0.2c0,0.2,0.1,0.2,0.3,0.2C23.3,7.5,23.5,7.3,23.6,7.1
					C23.6,7.1,23.6,7.1,23.6,7.1z"/>
				<path fill="#FFFFFF" d="M24.4,6h0.3v0.3h0C24.8,6.1,25,6,25.2,6c0,0,0.1,0,0.1,0v0.3c-0.1,0-0.1,0-0.2,0c-0.2,0-0.4,0.1-0.4,0.4
					c0,0,0,0,0,0v1h-0.3V6z"/>
				<path fill="#FFFFFF" d="M26.6,6H27v0.3h0C27.1,6.1,27.3,6,27.5,6c0.3,0,0.6,0.2,0.6,0.5c0,0,0,0.1,0,0.1v1.1h-0.3v-1
					c0-0.3-0.1-0.4-0.4-0.4c-0.2,0-0.4,0.2-0.4,0.4c0,0,0,0,0,0.1v1h-0.3V6z"/>
				<path fill="#FFFFFF" d="M28.5,7.2c0-0.3,0.2-0.5,0.6-0.5l0.5,0V6.6c0-0.2-0.1-0.3-0.3-0.3c-0.2,0-0.3,0.1-0.4,0.2h-0.3
					c0-0.3,0.3-0.5,0.7-0.5c0.4,0,0.7,0.2,0.7,0.6v1.1h-0.3V7.5h0c-0.1,0.2-0.3,0.3-0.5,0.3C28.8,7.8,28.5,7.6,28.5,7.2
					C28.5,7.3,28.5,7.3,28.5,7.2z M29.6,7.1V7l-0.4,0c-0.2,0-0.3,0.1-0.3,0.2c0,0.2,0.1,0.2,0.3,0.2C29.3,7.5,29.5,7.3,29.6,7.1
					C29.6,7.1,29.6,7.1,29.6,7.1L29.6,7.1z"/>
			</g>
		</g>
	</g>
</g>
<g id="Layer_7">
</g>
<g id="Layer_6">
</g>
<g id="Layer_5">
</g>
<g id="Layer_4">
</g>
<g id="Layer_2">
</g>
</svg>
