<?xml version="1.0" standalone="no"?>
<!DOCTYPE svg PUBLIC "-//W3C//DTD SVG 1.1//EN" "http://www.w3.org/Graphics/SVG/1.1/DTD/svg11.dtd" >
<svg xmlns="http://www.w3.org/2000/svg">
<defs>
  <font id="icons" horiz-adv-x="50">
    <font-face font-family="icons"
      units-per-em="1001" ascent="1001"
      descent="0" />
    <missing-glyph horiz-adv-x="0" />
    <glyph glyph-name="apartamento"
      unicode="&#xE001;"
      horiz-adv-x="1001" d="M930.93 72.072H856.8559999999999V848.848H886.886C894.8939999999999 848.848 900.9 854.854 900.9 862.8620000000001V922.922C900.9 930.93 894.894 936.936 886.886 936.936H108.108C100.1 938.938 94.094 932.932 94.094 922.922V862.8620000000001C94.094 854.854 100.1 848.848 108.108 848.848H138.138V72.072H64.064C56.056 72.072 50.05 66.0660000000002 50.05 58.058C50.05 50.0500000000001 56.056 44.044 64.064 44.044H930.93C938.938 44.044 944.944 50.0499999999998 944.944 58.058C944.944 66.0659999999999 938.9380000000002 72.072 930.93 72.072zM482.482 72.072H422.4220000000001V312.312H482.482V72.072zM572.572 72.072H512.5120000000001V312.312H572.572V72.072zM824.8240000000001 72.072H600.6V326.3259999999999C600.6 334.334 594.5939999999999 340.3400000000001 584.584 340.3400000000001H404.404C396.396 340.3400000000001 388.388 334.3340000000001 388.388 326.3259999999999V72.0719999999999H168.168V848.848H824.8239999999998V72.072zM154.154 878.878H124.124V908.908H870.87V878.878H154.154zM212.212 640.64H452.452C460.46 640.64 466.466 646.646 466.466 654.654V774.774C466.466 782.782 460.46 788.788 452.452 788.788H212.212C204.204 788.788 198.198 782.7819999999999 198.198 774.774V654.654C198.198 646.646 204.2040000000001 640.64 212.212 640.64zM348.348 758.758H438.438V668.668H348.348V758.758zM228.228 758.758H318.318V668.668H228.228V758.758zM212.212 192.192H346.346C354.354 192.192 360.3599999999999 198.198 360.3599999999999 206.2060000000001V326.3260000000002C360.3599999999999 334.3340000000001 354.354 340.3400000000002 346.346 340.3400000000002H212.212C204.204 340.3400000000002 198.198 334.3340000000002 198.198 326.3260000000002V206.2060000000001C198.198 198.1980000000001 204.204 192.192 212.212 192.192zM228.228 312.312H332.332V222.2220000000001H228.228V312.312zM780.78 340.3400000000001H646.646C638.6379999999999 340.3400000000001 632.632 334.3340000000001 632.632 326.3259999999999V206.2059999999999C632.632 198.198 638.6379999999999 192.1919999999999 646.646 192.1919999999999H780.78C788.788 192.1919999999999 794.7940000000001 198.1979999999999 794.7940000000001 206.2059999999999V326.3259999999999C794.7940000000001 334.334 788.7880000000001 340.3400000000001 780.78 340.3400000000001zM766.766 222.2220000000001H660.66V312.312H764.764V222.2220000000001zM542.542 640.64H782.782C790.79 640.64 796.796 646.646 796.796 654.654V774.774C796.796 782.782 790.7900000000001 788.788 782.782 788.788H542.542C534.534 788.788 528.528 782.7819999999999 528.528 774.774V654.654C526.526 646.646 532.532 640.64 542.542 640.64zM676.676 758.758H766.7660000000001V668.668H676.676V758.758zM556.556 758.758H646.6460000000001V668.668H556.556V758.758zM212.212 430.4300000000001H452.452C460.46 430.4300000000001 466.466 436.4360000000001 466.466 444.444V564.5640000000001C466.466 572.5719999999999 460.46 578.578 452.452 578.578H212.212C204.204 578.578 198.198 572.5719999999999 198.198 564.5640000000001V444.444C198.198 436.4360000000001 204.2040000000001 430.4300000000001 212.212 430.4300000000001zM348.348 550.55H438.438V460.46H348.348V550.55zM228.228 550.55H318.318V460.46H228.228V550.55zM542.5419999999999 430.4300000000001H782.7819999999999C790.7899999999998 430.4300000000001 796.7959999999999 436.4360000000001 796.7959999999999 444.444V564.5640000000001C796.7959999999999 572.5719999999999 790.79 578.578 782.7819999999999 578.578H542.5419999999999C534.5339999999999 578.578 528.5279999999999 572.5719999999999 528.5279999999999 564.5640000000001V444.444C526.5259999999998 436.4360000000001 532.5319999999999 430.4300000000001 542.5419999999999 430.4300000000001zM676.6759999999999 550.55H766.766V460.46H676.6759999999999V550.55zM556.5559999999999 550.55H646.646V460.46H556.5559999999999V550.55z" />
    <glyph glyph-name="apple_store_mono"
      unicode="&#xE002;"
      horiz-adv-x="2214.601769911504" d="M752.9646017699114 597.9424778761063C761.8230088495574 597.9424778761063 770.6814159292034 602.3716814159293 779.5398230088496 611.2300884955753V602.3716814159293H797.2566371681415V655.5221238938054C797.2566371681415 673.2389380530974 783.9690265486724 682.0973451327434 766.2522123893805 682.0973451327434C748.5353982300885 682.0973451327434 735.2477876106194 673.2389380530974 730.8185840707964 659.9513274336284H748.5353982300884C752.9646017699114 664.3805309734514 757.3938053097344 668.8097345132744 766.2522123893804 668.8097345132744C779.5398230088493 668.8097345132744 783.9690265486723 664.3805309734514 783.9690265486723 655.5221238938054V646.6637168141593H761.8230088495573C744.1061946902653 646.6637168141593 730.8185840707962 637.8053097345133 730.8185840707962 620.0884955752213C730.8185840707962 606.8008849557523 739.6769911504422 597.9424778761063 752.9646017699113 597.9424778761063zM761.8230088495574 633.3761061946904H779.5398230088493V628.9469026548674C779.5398230088493 615.6592920353983 766.2522123893804 611.2300884955753 757.3938053097344 611.2300884955753S744.1061946902653 615.6592920353983 744.1061946902653 624.5176991150444S752.9646017699113 633.3761061946904 761.8230088495573 633.3761061946904zM1058.579646017699 646.6637168141594C1058.579646017699 659.9513274336284 1067.438053097345 664.3805309734514 1080.7256637168139 664.3805309734514H1089.5840707964599V682.0973451327434H1080.7256637168139C1071.8672566371679 682.0973451327434 1063.008849557522 677.6681415929204 1058.579646017699 668.8097345132744V682.0973451327434H1040.862831858407V602.3716814159293H1058.579646017699V646.6637168141593zM1288.8982300884954 611.2300884955753V602.3716814159293H1306.6150442477874V655.5221238938054C1306.6150442477874 673.2389380530974 1293.3274336283182 682.0973451327434 1275.6106194690262 682.0973451327434C1257.8938053097343 682.0973451327434 1244.6061946902653 673.2389380530974 1240.1769911504423 659.9513274336284H1257.8938053097343C1262.3230088495573 664.3805309734514 1266.7522123893802 668.8097345132744 1275.6106194690262 668.8097345132744C1288.8982300884952 668.8097345132744 1293.3274336283182 664.3805309734514 1293.3274336283182 655.5221238938054V646.6637168141593H1271.181415929203C1253.464601769911 646.6637168141593 1240.176991150442 637.8053097345133 1240.176991150442 620.0884955752213C1240.176991150442 606.8008849557523 1253.464601769911 597.9424778761063 1266.7522123893802 597.9424778761063C1271.1814159292032 597.9424778761063 1284.4690265486722 602.3716814159293 1288.8982300884952 611.2300884955753zM1253.4646017699113 620.0884955752213C1253.4646017699113 628.9469026548672 1257.8938053097343 633.3761061946904 1271.1814159292032 633.3761061946904H1288.8982300884952V628.9469026548674C1288.8982300884952 615.6592920353983 1275.6106194690262 611.2300884955753 1266.7522123893802 611.2300884955753C1262.323008849557 611.2300884955753 1253.464601769911 611.2300884955753 1253.464601769911 620.0884955752213zM1864.6946902654863 482.783185840708C1838.119469026548 482.783185840708 1820.402654867256 473.924778761062 1807.1150442477872 456.2079646017701C1793.8274336283184 438.491150442478 1789.3982300884952 420.7743362831859 1789.3982300884952 394.1991150442479C1789.3982300884952 367.6238938053099 1798.2566371681414 349.9070796460178 1811.5442477876104 332.1902654867257C1824.8318584070792 318.9026548672568 1846.9778761061943 310.0442477876108 1873.5530973451323 310.0442477876108C1895.6991150442475 310.0442477876108 1913.4159292035397 314.4734513274338 1931.1327433628317 318.9026548672568L1926.7035398230084 345.4778761061947C1913.4159292035397 341.0486725663717 1900.1283185840705 336.6194690265487 1882.4115044247785 336.6194690265487C1869.1238938053093 336.6194690265487 1855.83628318584 341.0486725663717 1846.9778761061943 349.9070796460178C1838.119469026548 358.7654867256638 1829.2610619469024 372.0530973451329 1829.2610619469024 385.3407079646019H1939.9911504424776V403.057522123894C1939.9911504424776 425.203539823009 1935.5619469026544 442.9203539823011 1926.703539823009 456.2079646017701C1908.9867256637167 473.924778761062 1891.2699115044247 482.783185840708 1864.6946902654863 482.783185840708zM1820.402654867256 411.9159292035399C1820.402654867256 425.203539823009 1824.8318584070792 434.061946902655 1833.6902654867251 438.491150442478C1842.5486725663711 447.349557522124 1851.407079646017 451.7787610619471 1864.6946902654863 451.7787610619471C1877.9823008849553 451.7787610619471 1886.8407079646013 447.3495575221241 1891.2699115044245 438.491150442478C1895.6991150442475 429.632743362832 1900.1283185840705 420.7743362831859 1900.1283185840705 411.9159292035399H1820.4026548672568zM487.2123893805309 717.5309734513274H323.3318584070796C305.6150442477876 717.5309734513274 287.8982300884956 699.8141592920354 287.8982300884956 682.0973451327434V327.7610619469027C287.8982300884956 310.0442477876108 305.6150442477876 292.3274336283187 323.3318584070796 292.3274336283187H487.2123893805309C504.929203539823 292.3274336283187 522.6460176991151 310.0442477876108 522.6460176991151 327.7610619469027V682.0973451327434C522.6460176991151 699.8141592920355 504.929203539823 717.5309734513276 487.2123893805309 717.5309734513276zM385.3407079646017 682.0973451327434H420.7743362831858C425.2035398230088 682.0973451327434 425.2035398230088 677.6681415929204 425.2035398230088 677.6681415929204C425.2035398230088 673.2389380530974 420.7743362831858 673.2389380530974 420.7743362831858 673.2389380530974H385.3407079646017C380.9115044247787 673.2389380530974 380.9115044247787 673.2389380530974 380.9115044247787 677.6681415929204L385.3407079646017 682.0973451327434zM403.0575221238938 305.6150442477878C389.7699115044247 305.6150442477878 385.3407079646017 314.4734513274338 385.3407079646017 323.3318584070797S394.1991150442477 341.0486725663718 403.0575221238938 341.0486725663718S420.7743362831858 332.1902654867258 420.7743362831858 323.3318584070797C425.2035398230088 314.4734513274338 416.3451327433628 305.6150442477878 403.0575221238938 305.6150442477878zM500.5 358.7654867256638H310.0442477876106V642.2345132743363H500.5V358.7654867256638zM876.9823008849557 597.9424778761063L894.6991150442476 628.9469026548672L912.4159292035396 597.9424778761063H930.1327433628315L903.5575221238934 637.8053097345133L930.1327433628315 682.0973451327434H912.4159292035396L899.1283185840706 651.0929203539824H894.6991150442475L876.9823008849555 682.0973451327434H859.2654867256635L885.8407079646017 637.8053097345133L859.2654867256635 597.9424778761063zM713.1017699115044 628.9469026548672C713.1017699115044 642.2345132743363 699.8141592920354 655.5221238938053 686.5265486725664 655.5221238938053C699.8141592920355 659.9513274336283 704.2433628318585 668.8097345132744 704.2433628318585 677.6681415929204C704.2433628318585 695.3849557522124 690.9557522123894 704.2433628318583 673.2389380530974 704.2433628318583H628.9469026548674V597.9424778761062H673.2389380530974C699.8141592920355 597.9424778761062 713.1017699115044 611.2300884955753 713.1017699115044 628.9469026548672zM646.6637168141592 690.9557522123894H668.8097345132743C682.0973451327433 690.9557522123894 686.5265486725663 686.5265486725664 686.5265486725663 673.2389380530974C686.5265486725663 659.9513274336284 677.6681415929203 655.5221238938053 664.3805309734513 655.5221238938053H646.6637168141592V690.9557522123894zM646.6637168141592 611.2300884955753V646.6637168141593H668.8097345132743C686.5265486725663 646.6637168141593 695.3849557522122 642.2345132743363 695.3849557522122 628.9469026548672S686.5265486725663 611.2300884955753 673.2389380530973 611.2300884955753H646.6637168141592zM1740.676991150442 473.9247787610619C1731.818584070796 469.4955752212391 1727.3893805309733 460.637168141593 1722.96017699115 447.349557522124V478.3539823008849H1691.955752212389V314.4734513274338H1727.3893805309729V403.0575221238938C1727.3893805309729 416.3451327433629 1731.818584070796 425.2035398230089 1736.247787610619 434.0619469026549C1745.1061946902653 442.9203539823009 1753.964601769911 447.349557522124 1767.2522123893802 447.349557522124H1780.5398230088492V482.783185840708H1771.6814159292035C1758.3938053097345 482.783185840708 1749.5353982300883 478.353982300885 1740.676991150442 473.924778761062zM983.2831858407078 682.0973451327434C965.5663716814158 682.0973451327434 952.2787610619469 673.2389380530974 947.8495575221237 659.9513274336284H965.5663716814158C969.9955752212388 664.3805309734514 974.4247787610618 668.8097345132744 983.2831858407076 668.8097345132744C996.5707964601768 668.8097345132744 1000.9999999999995 664.3805309734514 1000.9999999999995 655.5221238938054V646.6637168141593H978.8539823008846C961.1371681415926 646.6637168141593 947.8495575221236 637.8053097345133 947.8495575221236 620.0884955752213C947.8495575221236 606.8008849557523 961.1371681415926 597.9424778761063 974.4247787610618 597.9424778761063C983.2831858407076 597.9424778761063 992.1415929203536 602.3716814159293 1000.9999999999998 611.2300884955753V602.3716814159293H1018.7168141592917V655.5221238938054C1014.2876106194688 673.2389380530974 1005.4292035398228 682.0973451327434 983.2831858407076 682.0973451327434zM996.5707964601768 628.9469026548672C996.5707964601768 615.6592920353983 987.712389380531 611.2300884955753 974.4247787610618 611.2300884955753C965.5663716814158 611.2300884955753 961.1371681415928 615.6592920353983 961.1371681415928 624.5176991150443S965.5663716814158 637.8053097345133 978.8539823008848 637.8053097345133H996.5707964601768V628.9469026548674zM1333.1902654867256 442.9203539823009C1315.4734513274336 447.3495575221239 1306.6150442477874 456.20796460177 1297.7566371681414 460.637168141593C1293.3274336283184 465.0663716814159 1288.8982300884954 473.9247787610619 1288.8982300884954 482.7831858407079S1293.3274336283187 496.070796460177 1297.7566371681414 504.929203539823C1302.1858407079646 509.358407079646 1315.4734513274334 513.787610619469 1328.7610619469026 513.787610619469C1346.4778761061946 513.787610619469 1359.7654867256635 509.358407079646 1373.0530973451325 504.929203539823L1381.9115044247785 535.933628318584C1368.6238938053095 544.79203539823 1350.9070796460176 549.2212389380531 1328.7610619469026 549.2212389380531S1284.4690265486724 544.7920353982302 1271.1814159292035 531.5044247787611C1257.8938053097343 518.216814159292 1249.0353982300883 504.929203539823 1249.0353982300883 487.2123893805309C1249.0353982300883 460.637168141593 1266.7522123893802 438.4911504424779 1306.6150442477874 420.7743362831858C1319.9026548672566 416.3451327433628 1333.1902654867256 407.4867256637168 1337.6194690265486 403.0575221238938C1342.0486725663716 398.6283185840709 1346.4778761061946 389.7699115044248 1346.4778761061946 380.9115044247788S1342.0486725663714 363.1946902654867 1333.1902654867254 354.3362831858407C1324.3318584070794 349.9070796460177 1315.4734513274334 345.4778761061947 1302.1858407079644 345.4778761061947C1284.4690265486724 345.4778761061947 1266.7522123893802 349.9070796460177 1249.0353982300883 358.7654867256638L1240.1769911504423 327.7610619469027C1253.4646017699115 318.9026548672568 1275.6106194690265 314.4734513274338 1297.7566371681414 314.4734513274338C1324.3318584070796 314.4734513274338 1346.4778761061946 318.9026548672568 1359.7654867256635 332.1902654867257C1373.0530973451325 345.4778761061948 1381.9115044247785 358.7654867256638 1381.9115044247785 380.9115044247789C1381.9115044247785 398.6283185840709 1377.4823008849555 407.4867256637168 1368.6238938053095 420.7743362831859C1364.1946902654865 425.2035398230089 1350.9070796460176 438.491150442478 1333.1902654867254 442.920353982301zM1457.2079646017696 518.216814159292L1417.3451327433627 509.358407079646V478.3539823008849H1395.1991150442477V451.778761061947H1417.3451327433627V367.6238938053098C1417.3451327433627 345.4778761061947 1421.7743362831857 332.1902654867257 1430.6327433628317 323.3318584070797C1439.4911504424776 314.4734513274338 1448.3495575221236 310.0442477876107 1466.0663716814156 310.0442477876107C1479.3539823008844 310.0442477876107 1488.2123893805306 310.0442477876107 1492.6415929203536 314.4734513274336V341.0486725663717H1474.9247787610616C1461.6371681415928 341.0486725663717 1452.7787610619466 354.3362831858407 1452.7787610619466 372.0530973451327V451.7787610619469H1492.6415929203536V478.3539823008849H1452.7787610619466V518.216814159292zM1187.0265486725662 682.0973451327434C1173.7389380530972 682.0973451327434 1164.8805309734512 677.6681415929204 1160.451327433628 668.8097345132743V682.0973451327434H1147.163716814159V602.3716814159293H1164.880530973451V651.0929203539823C1164.880530973451 659.9513274336284 1173.738938053097 668.8097345132744 1182.597345132743 668.8097345132744C1195.884955752212 668.8097345132744 1200.314159292035 664.3805309734514 1200.314159292035 651.0929203539823V602.3716814159293H1218.0309734513269V655.5221238938054C1218.0309734513269 673.2389380530974 1204.7433628318577 682.0973451327434 1187.0265486725657 682.0973451327434zM1111.730088495575 482.7831858407079C1085.1548672566369 482.7831858407079 1067.438053097345 473.9247787610619 1054.150442477876 451.7787610619469L1049.7212389380527 478.3539823008849H1018.716814159292V248.0353982300886H1054.1504424778761V336.6194690265487C1063.008849557522 318.9026548672568 1080.725663716814 314.4734513274338 1102.8716814159293 314.4734513274338C1120.5884955752213 314.4734513274338 1138.3053097345132 318.9026548672568 1151.5929203539824 336.6194690265487C1169.3097345132744 354.3362831858408 1173.7389380530974 376.4823008849559 1173.7389380530974 403.0575221238938S1169.3097345132744 447.349557522124 1156.0221238938054 465.0663716814161C1147.1637168141594 473.9247787610619 1133.8761061946905 482.783185840708 1111.7300884955753 482.783185840708zM1129.446902654867 354.3362831858407C1120.588495575221 341.0486725663716 1111.730088495575 336.6194690265486 1098.4424778761058 336.6194690265486C1085.1548672566369 336.6194690265486 1076.2964601769909 341.0486725663716 1071.8672566371679 349.9070796460177S1058.5796460176987 367.6238938053097 1058.5796460176987 380.9115044247787V420.7743362831858C1063.008849557522 429.6327433628318 1067.4380530973447 438.4911504424778 1071.8672566371679 442.9203539823008C1080.7256637168139 447.3495575221238 1089.5840707964599 451.7787610619467 1098.4424778761058 451.7787610619467C1111.730088495575 451.7787610619467 1120.588495575221 447.3495575221238 1129.446902654867 434.0619469026548C1138.305309734513 425.2035398230088 1142.734513274336 411.9159292035397 1142.734513274336 394.1991150442476C1142.734513274336 380.9115044247787 1138.305309734513 367.6238938053097 1129.446902654867 354.3362831858406zM1585.6548672566369 482.7831858407079C1559.0796460176987 482.7831858407079 1541.3628318584067 473.9247787610619 1528.075221238938 456.2079646017698C1514.787610619469 438.4911504424778 1505.9292035398228 420.7743362831858 1505.9292035398228 394.1991150442477C1505.9292035398228 367.6238938053097 1510.358407079646 349.9070796460177 1528.075221238938 332.1902654867256C1541.3628318584067 314.4734513274335 1563.508849557522 310.0442477876105 1585.6548672566369 310.0442477876105S1629.946902654867 318.9026548672565 1647.663716814159 336.6194690265486C1660.9513274336277 354.3362831858407 1669.809734513274 372.0530973451327 1669.809734513274 398.6283185840707C1669.809734513274 425.2035398230088 1660.9513274336277 442.9203539823008 1647.663716814159 460.6371681415928C1629.946902654867 473.9247787610619 1612.230088495575 482.7831858407079 1585.6548672566369 482.7831858407079zM1616.659292035398 358.7654867256637C1607.8008849557518 345.4778761061946 1598.942477876106 341.0486725663716 1585.6548672566369 341.0486725663716C1572.3672566371679 341.0486725663716 1559.0796460176987 345.4778761061946 1550.221238938053 358.7654867256637C1545.79203539823 367.6238938053097 1541.3628318584067 380.9115044247787 1541.3628318584067 398.6283185840707S1545.79203539823 425.2035398230088 1550.221238938053 438.4911504424778C1559.0796460176991 451.7787610619469 1567.938053097345 456.2079646017698 1585.6548672566369 456.2079646017698S1612.230088495575 451.7787610619469 1616.659292035398 438.4911504424778C1621.088495575221 429.6327433628318 1625.5176991150443 416.3451327433628 1625.5176991150443 398.6283185840707S1625.5176991150443 367.6238938053097 1616.659292035398 358.7654867256637zM823.8318584070796 682.0973451327434H841.5486725663716V602.3716814159293H823.8318584070796zM832.6902654867256 695.3849557522124C837.1194690265487 695.3849557522124 841.5486725663716 699.8141592920354 841.5486725663716 708.6725663716813C841.5486725663716 713.1017699115043 837.1194690265485 717.5309734513274 828.2610619469025 717.5309734513274C823.8318584070795 717.5309734513274 819.4026548672565 713.1017699115044 819.4026548672565 704.2433628318583C823.8318584070796 695.3849557522124 823.8318584070796 695.3849557522124 832.6902654867256 695.3849557522124zM930.1327433628318 482.783185840708C903.5575221238936 482.783185840708 885.8407079646017 473.924778761062 872.5530973451326 451.7787610619471L868.1238938053095 478.353982300885H841.5486725663716V248.0353982300886H876.9823008849557V336.6194690265487C885.8407079646017 318.9026548672568 903.5575221238938 314.4734513274338 925.7035398230088 314.4734513274338C943.4203539823008 314.4734513274338 961.137168141593 318.9026548672568 974.424778761062 336.6194690265487C987.712389380531 354.3362831858408 996.570796460177 376.4823008849559 996.570796460177 403.0575221238938S987.712389380531 447.349557522124 978.853982300885 465.0663716814161C965.566371681416 473.9247787610619 952.278761061947 482.783185840708 930.1327433628318 482.783185840708zM952.2787610619469 354.3362831858408C943.4203539823008 341.0486725663717 934.5619469026548 336.6194690265487 921.2743362831858 336.6194690265487C907.9867256637166 336.6194690265487 899.1283185840707 341.0486725663717 894.6991150442476 349.9070796460178C885.8407079646017 358.7654867256638 881.4115044247786 367.6238938053099 881.4115044247786 380.9115044247789V420.7743362831859C885.8407079646017 429.6327433628319 890.2699115044246 438.491150442478 894.6991150442476 442.920353982301C903.5575221238936 447.349557522124 912.4159292035396 451.778761061947 921.2743362831858 451.778761061947C934.5619469026548 451.778761061947 943.4203539823008 447.349557522124 952.2787610619469 434.0619469026549C961.1371681415928 425.2035398230089 965.5663716814158 411.9159292035398 965.5663716814158 394.1991150442479L952.2787610619469 354.3362831858407zM699.8141592920354 540.3628318584072L628.9469026548672 314.4734513274338H664.3805309734513L682.0973451327434 380.9115044247789H757.3938053097345L779.5398230088496 314.4734513274338H819.4026548672565L744.1061946902654 540.3628318584072H699.8141592920354zM695.3849557522124 407.4867256637169L713.1017699115044 465.0663716814161C717.5309734513274 482.7831858407081 721.9601769911504 500.5000000000002 726.3893805309734 509.3584070796462C730.8185840707965 487.2123893805311 735.2477876106194 473.924778761062 739.6769911504425 465.0663716814161L757.3938053097345 407.4867256637169H695.3849557522124zM2010.8584070796455 854.8362831858408H208.1725663716814C155.0221238938053 854.8362831858408 115.1592920353982 810.5442477876106 115.1592920353982 761.8230088495575V243.6061946902655C115.1592920353982 190.4557522123895 155.0221238938053 150.5929203539822 208.1725663716814 150.5929203539822H2010.858407079646C2064.0088495575224 150.5929203539822 2103.8716814159293 190.4557522123893 2103.8716814159293 243.6061946902655V757.3938053097345C2108.3008849557523 810.5442477876106 2064.0088495575224 854.8362831858408 2010.858407079646 854.8362831858408zM2081.725663716814 243.6061946902655C2081.725663716814 203.7433628318585 2050.721238938053 172.7389380530973 2010.8584070796455 172.7389380530973H208.1725663716814C168.3097345132743 172.7389380530973 137.3053097345133 203.7433628318584 137.3053097345133 243.6061946902655V761.8230088495575C137.3053097345133 801.6858407079646 168.3097345132743 832.6902654867257 208.1725663716814 832.6902654867257H2010.858407079646C2050.721238938053 832.6902654867257 2081.7256637168143 801.6858407079646 2081.7256637168143 761.8230088495575V243.6061946902655z" />
    <glyph glyph-name="assessoria"
      unicode="&#xE003;"
      horiz-adv-x="1001" d="M216.216 618.6179999999999A14.013999999999998 14.013999999999998 0 0 1 244.244 618.6179999999999A14.013999999999998 14.013999999999998 0 0 1 216.216 618.6179999999999M738.7379999999999 618.6179999999999A14.013999999999998 14.013999999999998 0 0 1 766.7660000000001 618.6179999999999A14.013999999999998 14.013999999999998 0 0 1 738.7379999999999 618.6179999999999M454.454 828.828H634.634V798.798H454.454zM440.44 708.7080000000001H530.53V678.678H440.44zM558.558 708.7080000000001H588.588V678.678H558.558zM364.364 888.888H632.6320000000001V858.858H364.364zM364.364 828.828H424.424V798.798H364.364zM350.35 740.74V708.7080000000001C350.35 702.702 352.3520000000001 698.6980000000001 358.358 696.696C360.36 694.694 362.362 694.694 366.366 694.694C368.368 694.694 372.372 694.694 374.3739999999999 696.696L380.38 700.7V678.678C380.38 646.646 406.406 618.6179999999999 440.44 618.6179999999999H480.4799999999999L552.5519999999999 576.576C554.554 574.5739999999998 556.5559999999999 574.5739999999998 560.56 574.5739999999998C562.5619999999999 574.5739999999998 566.5659999999999 574.5739999999998 568.5679999999999 576.576C572.5719999999999 578.578 576.5759999999999 584.584 576.5759999999999 588.588V618.6179999999999H590.5899999999998C624.6239999999998 618.6179999999999 650.6499999999999 644.644 650.6499999999999 678.678V708.708C650.6499999999999 718.718 646.6459999999997 728.728 642.6419999999998 738.738C672.6719999999999 742.742 696.6959999999999 768.768 696.6959999999999 798.798V888.888C696.6959999999999 920.92 670.67 948.948 636.636 948.948H364.364C332.332 948.948 304.304 922.922 304.304 888.888V798.798C306.306 770.77 324.324 746.746 350.35 740.74zM618.6179999999999 678.678C618.6179999999999 662.662 604.6039999999999 648.6479999999999 588.588 648.6479999999999H558.558C550.55 648.6479999999999 544.544 642.6419999999999 544.544 634.634V616.616L492.492 648.648C490.4899999999999 650.6500000000001 488.4879999999999 650.6500000000001 484.484 650.6500000000001H440.44C424.424 650.6500000000001 410.41 664.664 410.41 680.6800000000001V720.72L444.444 740.74H588.588C604.6039999999999 740.74 618.6179999999999 726.7260000000001 618.6179999999999 710.71V678.6780000000001zM336.336 888.888C336.336 904.904 350.35 918.918 366.366 918.918H634.634C650.65 918.918 664.664 904.904 664.664 888.888V798.798C664.664 782.782 650.65 768.768 634.634 768.768H440.44C438.438 768.768 434.434 768.768 432.432 766.7660000000001L380.38 734.7339999999999V752.752C380.38 760.76 374.374 766.766 366.366 766.766C350.35 766.766 336.336 780.78 336.336 796.796V888.888zM938.938 80.08L858.858 106.106V154.1539999999999H888.8879999999999C922.922 154.1539999999999 948.948 180.1799999999998 948.948 214.214V424.424C948.948 448.448 928.928 468.468 904.9039999999998 468.468C898.8979999999999 468.468 890.8899999999999 466.466 884.8839999999999 464.4639999999999C878.8779999999999 484.484 862.8619999999999 498.498 844.8439999999999 508.508C862.8619999999999 524.524 874.8739999999999 548.548 874.8739999999999 574.5740000000001V648.6479999999999C874.8739999999999 698.698 834.834 738.738 784.7839999999999 738.738H700.6999999999999C680.68 738.738 662.662 722.722 662.662 700.7C662.662 684.684 672.672 670.6700000000001 688.688 664.664L662.662 576.576C660.66 572.5719999999999 662.662 566.566 664.664 564.5639999999999S672.672 558.558 676.676 558.558H692.692C696.696 538.5379999999999 706.706 520.52 722.722 506.5059999999999C694.6940000000001 494.4939999999999 678.678 468.468 678.678 438.4379999999999V408.4079999999999H460.46L498.4979999999999 508.5079999999999L470.47 520.52L428.428 410.41H320.32V440.4400000000001C320.32 470.47 302.302 496.496 276.276 508.508C292.2920000000001 522.5219999999999 302.302 540.54 304.3040000000001 560.56H320.32C324.324 560.56 330.33 562.562 332.332 566.566C334.3340000000001 570.5699999999999 336.336 574.5740000000001 334.3340000000001 578.578L306.306 680.6800000000001C316.3160000000001 692.692 320.32 708.7080000000001 320.32 724.7239999999999C320.32 732.732 314.314 738.738 306.306 738.738H186.186C154.154 738.738 126.126 712.712 126.126 678.678V574.5740000000001C126.126 548.548 136.136 524.524 156.156 508.508C138.138 500.5 124.124 484.484 116.116 464.4639999999999C110.11 468.468 104.104 468.468 96.096 468.468C72.072 468.468 52.052 448.448 52.052 424.424V216.216C52.052 184.184 78.078 156.156 112.112 156.156H142.142V108.108L62.062 82.082C54.054 80.08 50.05 70.0700000000001 52.052 62.062C54.054 54.0540000000001 64.064 50.0500000000001 72.072 52.052L156.156 80.08L240.24 50.0500000000001H244.244C250.25 50.0500000000001 256.256 54.0540000000001 258.258 60.0600000000001C260.26 68.068 256.256 76.0759999999999 248.248 78.078L168.168 104.1039999999999V152.1519999999999H212.212C236.236 152.1519999999999 256.2559999999999 172.1719999999999 256.2559999999999 196.1959999999999C256.2559999999999 202.2019999999999 256.2559999999999 206.2059999999999 254.254 210.21H286.286V60.0600000000001C286.286 52.052 292.292 46.0459999999999 300.2999999999999 46.0459999999999H688.6879999999998C696.6959999999998 46.0459999999999 702.7019999999999 52.0519999999999 702.7019999999999 60.0600000000001V210.21H740.74C732.732 186.1859999999999 744.744 162.162 768.7679999999999 152.1520000000001C772.772 150.15 778.7779999999999 150.15 782.782 150.15H826.826V102.1020000000001L746.7460000000001 76.0760000000001C738.738 74.0740000000001 734.734 64.0640000000001 736.7360000000001 58.0580000000001C738.738 50.0500000000002 748.748 46.0460000000001 754.754 48.0480000000001L838.8380000000001 76.0760000000001L922.9220000000003 46.0460000000001H926.9260000000002C932.9320000000002 46.0460000000001 938.9380000000002 50.0500000000002 940.9400000000002 56.0560000000002C950.9500000000002 70.0700000000002 946.9460000000003 78.0780000000001 938.9380000000002 80.0800000000002zM840.84 664.664C842.842 660.6600000000001 842.842 654.654 842.842 650.6500000000001V648.6479999999999L828.828 666.6659999999999H840.84zM694.6940000000001 700.7C694.6940000000001 704.704 698.6980000000001 708.7080000000001 702.702 708.7080000000001H784.784C798.7980000000001 708.7080000000001 812.812 702.702 824.8240000000001 694.694H700.6999999999999C696.6959999999999 694.694 694.6940000000001 696.696 694.6940000000001 700.7zM708.7080000000001 588.588H698.6980000000001L720.7200000000001 662.662H790.7900000000001L842.8420000000001 596.596V572.5719999999999C842.8420000000001 540.54 816.8160000000003 512.512 782.7820000000002 512.512C750.7500000000001 512.512 722.7220000000002 538.538 722.7220000000002 572.5719999999999C724.7240000000002 582.582 716.7160000000002 588.588 708.7080000000001 588.588zM708.7080000000001 440.4400000000001C708.7080000000001 464.4639999999999 728.7280000000001 484.484 752.7520000000002 484.484H766.7660000000002V350.35H796.7960000000002V484.484H810.8100000000003C834.8340000000003 484.484 854.8540000000003 464.4639999999999 854.8540000000003 440.4400000000001V320.3200000000001H704.7040000000003V440.4400000000001zM320.32 380.38H678.678V350.35H320.32V380.38zM156.156 678.678C156.156 694.694 170.17 708.708 186.186 708.708H288.288C282.282 690.69 264.264 678.678 246.246 678.678H186.186C182.182 678.678 176.176 676.6759999999999 174.174 672.672L156.156 648.6479999999999V678.678zM156.156 598.598L194.194 648.6479999999999H246.246C258.258 648.6479999999999 270.27 652.652 282.282 658.6579999999999L302.302 590.59H292.292C284.284 590.59 278.278 584.5840000000001 278.278 576.576C278.278 544.544 252.252 516.5160000000001 218.218 516.5160000000001C186.186 516.5160000000001 158.158 542.542 158.158 576.576V598.5980000000001zM142.142 440.4400000000001C142.142 464.4639999999999 162.162 484.484 186.186 484.484H200.2V350.35H230.23V484.484H244.244C268.268 484.484 288.288 464.4639999999999 288.288 440.4400000000001V320.3200000000001H142.142V440.4400000000001zM216.216 186.1859999999999H112.112C96.096 186.1859999999999 82.082 200.2000000000001 82.082 216.216V424.424C82.082 432.432 88.088 438.438 96.096 438.438C104.104 438.438 110.11 432.432 110.11 424.424V304.3040000000001C110.11 282.2820000000001 118.118 260.26 132.132 244.2440000000001H126.126C118.118 244.2440000000001 112.112 238.2380000000002 112.112 230.23C112.112 222.2220000000001 118.118 216.216 126.126 216.216H216.216C224.224 216.216 230.23 210.21 230.23 202.2019999999999S224.224 186.1859999999999 216.216 186.1859999999999zM320.32 82.0819999999999V232.2319999999999C320.32 240.2399999999999 314.314 246.246 306.306 246.246H200.2C172.172 246.246 150.15 264.2639999999999 142.142 290.29H320.32C344.344 290.29 364.364 270.27 364.364 246.246V112.1119999999999C364.364 110.1099999999999 364.364 106.106 366.366 104.1039999999999L380.38 82.0819999999999H320.32zM484.484 82.0819999999999H418.418L394.394 116.116V246.246C394.394 288.288 360.36 320.3200000000001 320.32 320.3200000000001H484.484V82.082zM604.6039999999999 116.116L580.58 82.082H514.514V320.3200000000001H678.678C636.636 320.3200000000001 604.6039999999999 286.286 604.6039999999999 246.246V116.116zM694.6940000000001 246.246C686.686 246.246 680.68 240.24 680.68 232.2319999999999V82.0819999999999H618.6179999999999L632.632 104.1039999999999C634.634 106.106 634.634 110.1099999999999 634.634 112.1119999999999V246.246C634.634 270.27 654.654 290.29 678.678 290.29H856.8559999999999C850.85 264.2640000000001 826.8259999999999 246.246 798.798 246.246H694.6939999999998zM782.782 186.1859999999999C774.774 186.1859999999999 768.7679999999999 192.1919999999999 768.7679999999999 200.2000000000001S774.7739999999999 214.2140000000001 782.782 214.2140000000001H872.872C880.88 214.2140000000001 886.8860000000001 220.22 886.8860000000001 228.2280000000002C886.8860000000001 236.2360000000001 880.8800000000001 242.2420000000002 872.872 242.2420000000002H864.864C878.878 258.2580000000002 886.8860000000001 280.2800000000002 886.8860000000001 302.3020000000002V422.4220000000002C886.8860000000001 430.4300000000002 892.892 436.4360000000002 900.9 436.4360000000002C908.9080000000002 436.4360000000002 914.9140000000002 430.4300000000002 914.9140000000002 422.4220000000002V214.2140000000002C914.9140000000002 198.1980000000003 900.9 184.1840000000002 884.8840000000001 184.1840000000002H782.7820000000002z" />
    <glyph glyph-name="bar-code"
      unicode="&#xE004;"
      horiz-adv-x="1001" d="M50.05 916.916H284.284V84.084H50.05zM462.462 916.916H696.6959999999999V84.084H462.462zM334.3340000000001 916.916H412.4120000000001V84.084H334.3340000000001zM746.7460000000001 916.916H824.8240000000001V84.084H746.7460000000001zM874.874 916.916H952.952V84.084H874.874z" />
    <glyph glyph-name="condominio"
      unicode="&#xE005;"
      horiz-adv-x="1001" d="M626.626 352.3520000000001C626.626 360.36 620.62 366.366 612.612 366.366C604.604 366.366 598.5980000000001 360.36 598.5980000000001 352.3520000000001V322.322C598.5980000000001 314.3140000000001 604.604 308.308 612.612 308.308C620.62 308.308 626.626 314.314 626.626 322.322V352.3520000000001zM612.612 188.1880000000001C604.604 188.1880000000001 598.5980000000001 182.1820000000003 598.5980000000001 174.1740000000001V114.114C598.5980000000001 106.1060000000001 604.604 100.1 612.612 100.1C620.62 100.1 626.626 106.106 626.626 114.114V174.1740000000001C626.626 182.182 620.62 188.1880000000001 612.612 188.1880000000001zM686.686 530.5300000000002C686.686 538.5380000000001 680.6800000000002 544.5440000000001 672.672 544.5440000000001C664.664 544.5440000000001 658.6579999999999 538.5380000000001 658.6579999999999 530.5300000000002V500.5C658.6579999999999 492.492 664.6639999999999 486.486 672.672 486.486C680.68 486.486 686.686 492.492 686.686 500.5V530.53zM626.6260000000001 440.4400000000002C626.6260000000001 448.4480000000001 620.62 454.4540000000002 612.6120000000001 454.4540000000002C604.6040000000002 454.4540000000002 598.5980000000001 448.4480000000001 598.5980000000001 440.4400000000002V410.4100000000002C598.5980000000001 402.4020000000002 604.6040000000002 396.3960000000002 612.6120000000001 396.3960000000002C620.62 396.3960000000002 626.6260000000001 402.4020000000002 626.6260000000001 410.4100000000002V440.4400000000001zM626.6260000000001 262.2620000000002C626.6260000000001 270.2700000000002 620.62 276.2760000000003 612.6120000000001 276.2760000000003C604.6040000000002 276.2760000000003 598.5980000000001 270.2700000000003 598.5980000000001 262.2620000000002V232.2320000000002C598.5980000000001 224.2240000000002 604.6040000000002 218.2180000000001 612.6120000000001 218.2180000000001C620.62 218.2180000000001 626.6260000000001 224.2240000000001 626.6260000000001 232.2320000000002V262.2620000000002zM686.686 440.4400000000002C686.686 448.4480000000001 680.6800000000002 454.4540000000002 672.672 454.4540000000002C664.664 454.4540000000002 658.6579999999999 448.4480000000001 658.6579999999999 440.4400000000002V410.4100000000002C658.6579999999999 402.4020000000002 664.6639999999999 396.3960000000002 672.672 396.3960000000002C680.68 396.3960000000002 686.686 402.4020000000002 686.686 410.4100000000002V440.4400000000001zM566.566 530.5300000000002C566.566 538.5380000000001 560.5600000000001 544.5440000000001 552.5520000000001 544.5440000000001C544.5440000000001 544.5440000000001 538.5380000000001 538.5380000000001 538.5380000000001 530.5300000000002V500.5C538.5380000000001 492.492 544.5440000000001 486.486 552.5520000000001 486.486C560.5600000000001 486.486 566.566 492.492 566.566 500.5V530.53zM626.6260000000001 530.5300000000002C626.6260000000001 538.5380000000001 620.62 544.5440000000001 612.6120000000001 544.5440000000001C604.6040000000002 544.5440000000001 598.5980000000001 538.5380000000001 598.5980000000001 530.5300000000002V500.5C598.5980000000001 492.492 604.6040000000002 486.486 612.6120000000001 486.486C620.62 486.486 626.6260000000001 492.492 626.6260000000001 500.5V530.53zM686.686 678.6780000000001V708.7080000000001C686.686 716.7160000000001 680.6800000000002 722.7220000000001 672.672 722.7220000000001C664.664 722.7220000000001 658.6579999999999 716.7160000000001 658.6579999999999 708.7080000000001V678.6780000000001C658.6579999999999 670.6700000000001 664.6639999999999 664.6640000000002 672.672 664.6640000000002C678.678 662.662 686.686 670.6700000000001 686.686 678.6780000000001zM566.566 440.4400000000002C566.566 448.4480000000001 560.5600000000001 454.4540000000002 552.5520000000001 454.4540000000002C544.5440000000001 454.4540000000002 538.5380000000001 448.4480000000001 538.5380000000001 440.4400000000002V410.4100000000002C538.5380000000001 402.4020000000002 544.5440000000001 396.3960000000002 552.5520000000001 396.3960000000002C560.5600000000001 396.3960000000002 566.566 402.4020000000002 566.566 410.4100000000002V440.4400000000001zM744.744 706.7060000000001C744.744 714.7140000000002 738.738 720.7200000000001 730.73 720.7200000000001S716.7159999999999 714.7140000000002 716.7159999999999 706.7060000000001V676.6760000000002C716.7159999999999 668.6680000000001 722.7219999999999 662.6620000000003 730.73 662.6620000000003S744.744 668.6680000000001 744.744 676.6760000000002V706.7060000000001zM552.552 366.3660000000002C544.5440000000001 366.3660000000002 538.538 360.3600000000002 538.538 352.3520000000002V322.3220000000003C538.538 314.3140000000002 544.5440000000001 308.3080000000001 552.552 308.3080000000001C560.56 308.3080000000001 566.566 314.3140000000001 566.566 322.3220000000003V352.3520000000002C566.566 360.3600000000002 560.56 366.3660000000002 552.552 366.3660000000002zM804.8040000000001 262.2620000000002C804.8040000000001 270.2700000000002 798.7980000000001 276.2760000000003 790.79 276.2760000000003C782.782 276.2760000000003 776.776 270.2700000000003 776.776 262.2620000000002V232.2320000000002C776.776 224.2240000000002 782.7819999999999 218.2180000000001 790.79 218.2180000000001C798.798 218.2180000000001 804.8040000000001 224.2240000000001 804.8040000000001 232.2320000000002V262.2620000000002zM788.7880000000001 188.1880000000001C780.7800000000001 188.1880000000001 774.774 182.1820000000003 774.774 174.1740000000001V114.114C774.774 106.1060000000001 780.78 100.1 788.7880000000001 100.1C796.796 100.1 802.8020000000001 106.106 802.8020000000001 114.114V174.1740000000001C804.8040000000002 182.182 798.7980000000001 188.1880000000001 788.7880000000001 188.1880000000001zM848.8480000000001 366.3660000000001C840.8400000000001 366.3660000000001 834.8340000000001 360.3600000000002 834.8340000000001 352.3520000000001V322.322C834.8340000000001 314.3140000000001 840.84 308.308 848.8480000000001 308.308S862.8620000000002 314.314 862.8620000000002 322.322V352.3520000000001C862.8620000000002 360.36 856.8560000000002 366.366 848.8480000000001 366.366zM612.612 662.662C620.62 662.662 626.626 668.6680000000001 626.626 676.676V740.74L774.774 778.778V530.53C774.774 524.524 778.7780000000001 518.518 784.784 516.5160000000001L892.892 476.476V324.3240000000001C892.892 316.3160000000002 898.8979999999999 310.3100000000001 906.906 310.3100000000001C914.914 310.3100000000001 920.92 316.3159999999999 920.92 324.3240000000001V486.4860000000001C920.92 492.4920000000001 916.916 498.4980000000001 910.91 500.5000000000001L802.8020000000001 540.5400000000001V826.826C802.8020000000001 834.8340000000001 796.7960000000002 840.84 788.7880000000001 840.84C780.7800000000001 840.84 774.774 834.8340000000001 774.774 826.826V808.808L608.6080000000001 766.7660000000001C602.602 764.764 596.596 758.758 596.596 752.7520000000001V678.6780000000001C596.596 670.6700000000001 602.602 662.662 612.612 662.662zM862.862 440.4400000000001C862.862 448.448 856.8560000000001 454.454 848.848 454.454S834.834 448.448 834.834 440.4400000000001V410.41C834.834 402.4020000000001 840.8399999999998 396.3960000000001 848.848 396.3960000000001S862.862 402.4020000000001 862.862 410.41V440.4400000000001zM804.8040000000001 440.4400000000001C804.8040000000001 448.448 798.7980000000001 454.454 790.79 454.454C782.782 454.454 776.776 448.448 776.776 440.4400000000001V410.41C776.776 402.4020000000001 782.7819999999999 396.3960000000001 790.79 396.3960000000001C798.798 396.3960000000001 804.8040000000001 402.4020000000001 804.8040000000001 410.41V440.4400000000001zM686.686 262.2620000000001C686.686 270.27 680.6800000000002 276.2760000000001 672.672 276.2760000000001C664.664 276.2760000000001 658.6579999999999 270.2700000000002 658.6579999999999 262.2620000000001V232.2320000000001C658.6579999999999 224.2240000000001 664.6639999999999 218.218 672.672 218.218C680.68 218.218 686.686 224.2239999999999 686.686 232.2320000000001V262.2620000000001zM804.8040000000001 352.3520000000001C804.8040000000001 360.36 798.7980000000001 366.366 790.79 366.366C782.782 366.366 776.776 360.36 776.776 352.3520000000001V322.322C776.776 314.3140000000001 782.7819999999999 308.308 790.79 308.308C798.798 308.308 804.8040000000001 314.314 804.8040000000001 322.322V352.3520000000001zM670.67 188.1880000000001C662.662 188.1880000000001 656.656 182.1820000000003 656.656 174.1740000000001V114.114C656.656 106.1060000000001 662.6619999999999 100.1 670.67 100.1C678.678 100.1 684.6840000000001 106.106 684.6840000000001 114.114V174.1740000000001C686.686 182.182 678.6780000000001 188.1880000000001 670.67 188.1880000000001zM686.6859999999999 352.3520000000002C686.6859999999999 360.3600000000002 680.68 366.3660000000002 672.6719999999999 366.3660000000002C664.6639999999999 366.3660000000002 658.6579999999998 360.3600000000002 658.6579999999998 352.3520000000002V322.3220000000003C658.6579999999998 314.3140000000002 664.6639999999998 308.3080000000001 672.6719999999999 308.3080000000001C680.6799999999998 308.3080000000001 686.6859999999999 314.3140000000001 686.6859999999999 322.3220000000003V352.3520000000002zM730.73 100.1C738.7379999999999 100.1 744.744 106.106 744.744 114.114V588.588C744.744 594.594 740.74 600.6 732.732 602.602L496.496 662.662C492.492 664.664 486.486 662.662 484.484 660.6599999999999C480.48 658.6579999999999 478.478 652.652 478.478 648.6479999999999V322.3219999999999C478.478 314.314 484.484 308.3079999999999 492.492 308.3079999999999C500.4999999999999 308.3079999999999 506.5059999999999 314.3139999999998 506.5059999999999 322.3219999999999V628.6279999999999L714.7139999999999 576.576V114.1139999999999C714.7139999999999 106.106 722.7219999999999 100.0999999999999 730.7299999999998 100.0999999999999zM388.388 618.6179999999999C388.388 626.626 382.382 632.632 374.374 632.632C366.366 632.632 360.36 626.626 360.36 618.6179999999999V588.588C360.36 580.5799999999999 366.366 574.5740000000001 374.374 574.5740000000001C382.382 574.5740000000001 388.388 580.5799999999999 388.388 588.588V618.6179999999999zM388.388 706.7059999999999C388.388 714.7139999999999 382.382 720.72 374.374 720.72C366.366 720.72 360.36 714.7139999999999 360.36 706.7059999999999V676.6759999999999C360.36 668.668 366.366 662.662 374.374 662.662C382.382 662.662 388.388 668.668 388.388 676.6759999999999V706.7059999999999zM270.27 262.2620000000001C270.27 270.27 264.264 276.2760000000001 256.256 276.2760000000001S240.24 270.2700000000002 240.24 262.2620000000001V232.2320000000001C240.24 224.2240000000001 246.246 218.218 254.254 218.218S268.2679999999999 224.2239999999999 268.2679999999999 232.2320000000001V262.2620000000001zM138.138 396.3960000000001C146.146 396.3960000000001 152.152 402.4020000000001 152.152 410.41V484.484H300.3V114.114C300.3 106.1060000000001 306.306 100.1 314.314 100.1S328.328 106.106 328.328 114.114V500.5C328.328 508.508 322.322 514.514 314.314 514.514H138.138C130.13 514.514 124.124 508.508 124.124 500.5V412.4120000000001C122.122 402.4020000000001 128.128 396.3960000000001 138.138 396.3960000000001zM300.3 618.6179999999999V588.588C300.3 580.5799999999999 306.306 574.5740000000001 314.314 574.5740000000001S328.328 580.5799999999999 328.328 588.588V618.6179999999999C328.328 626.626 322.322 632.632 314.314 632.632S300.3 626.626 300.3 618.6179999999999zM388.388 796.796C388.388 804.804 382.382 810.81 374.374 810.81C366.366 810.81 360.36 804.804 360.36 796.796V766.766C360.36 758.758 366.366 752.752 374.374 752.752C382.382 752.752 388.388 758.758 388.388 766.766V796.796zM256.2560000000001 188.188C248.248 188.188 242.242 182.182 242.242 174.174V114.1139999999999C242.242 106.106 248.2480000000001 100.0999999999999 256.2560000000001 100.0999999999999S270.27 106.1059999999998 270.27 114.1139999999999V174.174C270.27 182.1819999999999 264.264 188.188 256.2560000000001 188.188zM936.936 70.0700000000001H906.906V162.162C932.932 168.168 950.95 192.192 950.95 220.22C950.95 252.2520000000001 924.924 280.28 890.89 280.28C858.858 280.28 830.8299999999999 254.254 830.8299999999999 220.22C830.8299999999999 192.192 848.848 170.1700000000001 874.874 162.162V70.0700000000001H508.508V130.13C542.5419999999999 136.136 568.568 166.166 568.568 202.202C568.568 242.2420000000001 534.534 276.2760000000001 494.494 276.2760000000001S420.42 242.2420000000001 420.42 202.202C420.42 166.1660000000001 446.4460000000001 136.1360000000001 480.48 130.13V70.0700000000001H152.152V220.22C186.186 226.226 212.212 256.256 212.212 292.2920000000001C212.212 332.332 178.178 366.366 138.138 366.366S64.064 332.332 64.064 292.2920000000001C64.064 256.2560000000001 90.09 226.2260000000001 124.124 220.22V70.0700000000001H78.078C70.07 70.0700000000001 64.064 64.0640000000001 64.064 56.0559999999999C64.064 48.048 70.07 42.0419999999999 78.078 42.0419999999999H938.938C946.946 42.0419999999999 952.952 48.0479999999999 952.952 56.0559999999999C952.952 64.064 946.946 70.0700000000001 936.936 70.0700000000001zM92.092 292.2920000000001C92.092 316.3160000000002 112.112 336.3360000000002 136.136 336.3360000000002C160.16 336.3360000000002 180.18 316.3160000000002 180.18 292.2920000000001C180.18 268.2680000000001 160.16 248.248 136.136 248.248C112.112 248.248 92.092 268.2680000000001 92.092 292.2920000000001zM448.448 204.2040000000001C448.448 228.2280000000002 468.468 248.2480000000002 492.492 248.2480000000002C516.516 248.2480000000002 536.536 228.2280000000002 536.536 204.2040000000001S516.516 160.16 492.492 160.16C468.468 158.158 448.448 178.178 448.448 204.2040000000001zM862.8619999999999 218.2180000000001C862.8619999999999 234.2340000000001 876.876 248.2480000000002 892.8919999999998 248.2480000000002S922.922 234.2340000000001 922.922 218.2180000000001S908.9079999999998 188.1880000000001 892.8919999999998 188.1880000000001S862.8619999999999 202.2020000000002 862.8619999999999 218.2180000000001zM182.182 174.1740000000001V114.114C182.182 106.1060000000001 188.188 100.1 196.196 100.1C204.204 100.1 210.21 106.106 210.21 114.114V174.1740000000001C210.21 182.182 204.204 188.1880000000001 196.196 188.1880000000001C188.188 188.1880000000001 182.182 182.1820000000003 182.182 174.1740000000001zM270.27 440.4400000000001C270.27 448.448 264.264 454.454 256.2560000000001 454.454S240.24 448.448 240.24 440.4400000000001V410.41C240.24 402.4020000000001 246.246 396.3960000000001 254.254 396.3960000000001S268.268 402.4020000000001 268.268 410.41V440.4400000000001zM270.27 352.3520000000001C270.27 360.36 264.264 366.366 256.2560000000001 366.366S240.24 360.36 240.24 352.3520000000001V322.322C240.24 314.3140000000001 246.246 308.308 254.254 308.308S268.268 314.314 268.268 322.322V352.3520000000001zM182.182 440.4400000000001V410.41C182.182 402.4020000000001 188.188 396.3960000000001 196.196 396.3960000000001C204.204 396.3960000000001 210.21 402.4020000000001 210.21 410.41V440.4400000000001C210.21 448.448 204.204 454.454 196.196 454.454C188.188 456.456 182.182 448.448 182.182 440.4400000000001zM388.388 352.3520000000001C388.388 360.36 382.382 366.366 374.374 366.366C366.366 366.366 360.36 360.36 360.36 352.3520000000001V322.322C360.36 314.3140000000001 366.366 308.308 374.374 308.308C382.382 308.308 388.388 314.314 388.388 322.322V352.3520000000001zM448.448 530.53C448.448 538.538 442.442 544.544 434.434 544.544C426.426 544.544 420.42 538.538 420.42 530.53V500.5C420.42 492.492 426.426 486.486 434.434 486.486C442.442 486.486 448.448 492.492 448.448 500.5V530.53zM448.448 618.6179999999999C448.448 626.626 442.442 632.632 434.434 632.632C426.426 632.632 420.42 626.626 420.42 618.6179999999999V588.588C420.42 580.5799999999999 426.426 574.5740000000001 434.434 574.5740000000001C442.442 574.5740000000001 448.448 580.5799999999999 448.448 588.588V618.6179999999999zM448.448 440.4400000000001C448.448 448.448 442.442 454.454 434.434 454.454C426.426 454.454 420.42 448.448 420.42 440.4400000000001V410.41C420.42 402.4020000000001 426.426 396.3960000000001 434.434 396.3960000000001C442.442 396.3960000000001 448.448 402.4020000000001 448.448 410.41V440.4400000000001zM434.434 366.366C426.426 366.366 420.42 360.36 420.42 352.3520000000001V322.322C420.42 314.3140000000001 426.426 308.308 434.434 308.308C442.442 308.308 448.448 314.314 448.448 322.322V352.3520000000001C448.448 360.36 442.442 366.366 434.434 366.366zM448.448 706.706C448.448 714.714 442.442 720.72 434.434 720.72C426.426 720.72 420.42 714.7139999999999 420.42 706.706V676.676C420.42 668.6680000000001 426.426 662.662 434.434 662.662C442.442 662.662 448.448 668.6680000000001 448.448 676.676V706.706zM388.388 262.2620000000001C388.388 270.27 382.382 276.2760000000001 374.374 276.2760000000001C366.366 276.2760000000001 360.36 270.2700000000002 360.36 262.2620000000001V232.2320000000001C360.36 224.2240000000001 366.366 218.218 374.374 218.218C382.382 218.218 388.388 224.2239999999999 388.388 232.2320000000001V262.2620000000001zM256.2560000000001 544.544C264.264 544.544 270.27 550.55 270.27 558.558V668.668L322.322 694.694C328.3280000000001 696.6959999999999 330.33 702.702 330.33 708.708V832.832L404.404 870.87L478.478 832.832V708.708C478.478 700.7 484.484 694.694 492.492 694.694C500.4999999999999 694.694 506.5059999999999 700.7 506.5059999999999 708.708V840.84C506.5059999999999 846.846 502.502 850.85 498.4979999999999 854.854L418.418 894.894V914.914C418.418 922.922 412.4119999999999 928.928 404.404 928.928C396.396 928.928 390.39 922.922 390.39 914.914V894.894L310.31 854.854C304.304 850.85 300.3 846.846 300.3 840.84V716.716L248.248 690.69C242.242 688.688 240.24 682.682 240.24 676.676V558.558C240.24 550.55 248.248 544.544 256.2560000000001 544.544zM388.388 440.4400000000001C388.388 448.448 382.382 454.454 374.374 454.454C366.366 454.454 360.36 448.448 360.36 440.4400000000001V410.41C360.36 402.4020000000001 366.366 396.3960000000001 374.374 396.3960000000001C382.382 396.3960000000001 388.388 402.4020000000001 388.388 410.41V440.4400000000001zM374.374 188.188C366.366 188.188 360.36 182.182 360.36 174.174V114.1139999999999C360.36 106.106 366.366 100.0999999999999 374.374 100.0999999999999C382.382 100.0999999999999 388.388 106.1059999999998 388.388 114.1139999999999V174.174C388.388 182.1819999999999 382.382 188.188 374.374 188.188zM448.448 796.796C448.448 804.8040000000001 442.442 810.81 434.434 810.81C426.426 810.81 420.42 804.804 420.42 796.796V766.7660000000001C420.42 758.758 426.426 752.7520000000001 434.434 752.7520000000001C442.442 752.7520000000001 448.448 758.758 448.448 766.7660000000001V796.796zM388.388 530.53C388.388 538.538 382.382 544.544 374.374 544.544C366.366 544.544 360.36 538.538 360.36 530.53V500.5C360.36 492.492 366.366 486.486 374.374 486.486C382.382 486.486 388.388 492.492 388.388 500.5V530.53z" />
    <glyph glyph-name="contabilidade"
      unicode="&#xE006;"
      horiz-adv-x="1001" d="M232.232 632.6320000000001H262.262V602.6020000000001H232.232zM292.292 632.6320000000001H322.322V602.6020000000001H292.2920000000001zM278.278 884.884H560.56V854.854H278.278zM350.81046 796.4556600000001L276.73646 797.65686L277.23696 827.68686L351.31096 826.48566zM382.382 826.826H560.56V796.796H382.382zM766.766 786.7860000000001C766.766 788.788 764.7639999999999 790.79 764.7639999999999 790.79L616.616 940.94C614.6139999999999 942.942 614.6139999999999 942.942 612.612 942.942H610.61C608.608 942.942 608.608 944.944 606.606 944.944H218.218C210.21 944.944 204.204 938.938 204.204 930.93V766.7660000000001H70.07C62.062 766.7660000000001 56.056 760.76 56.056 752.7520000000001V68.068C56.056 60.0600000000001 62.062 54.054 70.07 54.054H546.546C554.554 54.054 560.56 60.0599999999998 560.56 68.068V172.172H754.754C762.7620000000001 172.172 768.7680000000001 178.178 768.7680000000001 186.1860000000002V780.78C768.7680000000001 782.782 768.7680000000001 784.784 766.7660000000001 786.7860000000001zM618.6179999999999 894.894L716.7159999999999 796.796H618.6179999999999V894.894zM530.53 82.082H84.084V736.7360000000001H530.53V82.0819999999999zM738.7379999999999 202.202H560.56V246.2460000000001H678.678C686.6859999999999 246.2460000000001 692.692 252.2520000000001 692.692 260.2600000000001V706.706C692.692 714.714 686.686 720.72 678.678 720.72H560.56V750.75C560.56 758.758 554.554 764.764 546.546 764.764H232.232V914.914H588.588V780.78C588.588 772.7719999999999 594.5939999999999 766.7660000000001 602.602 766.7660000000001H736.7359999999999V202.202zM664.6639999999999 602.6020000000001V542.542H560.56V602.6020000000001H664.664zM560.56 632.6320000000001V692.692H664.664V632.6320000000001H560.56zM664.664 514.5140000000001V454.4540000000001H560.56V514.5140000000001H664.664zM664.664 424.4240000000001V364.3640000000001H560.56V424.4240000000001H664.664zM664.664 336.3360000000002V276.2760000000001H560.56V336.3360000000002H664.664zM128.128 544.544H484.484C492.492 544.544 498.498 550.55 498.498 558.558V676.6759999999999C498.498 684.684 492.492 690.6899999999999 484.484 690.6899999999999H128.128C120.12 690.6899999999999 114.114 684.684 114.114 676.6759999999999V558.558C114.114 550.55 120.12 544.544 128.128 544.544zM144.144 662.662H470.47V572.5720000000001H144.144V662.662zM128.128 112.1120000000001H484.484C492.492 112.1120000000001 498.498 118.118 498.498 126.1260000000001V484.484C498.498 492.492 492.492 498.498 484.484 498.498H128.128C120.12 498.498 114.114 492.492 114.114 484.484V128.1280000000001C114.114 118.118 120.12 112.1120000000001 128.128 112.1120000000001zM410.41 468.4680000000001H470.47V408.408H410.41V468.4680000000001zM410.41 380.38H470.47V320.3200000000001H410.41V380.38zM410.41 290.29H470.47V142.1420000000001H410.41V290.29zM322.322 468.468H382.382V408.408H322.322V468.468zM322.322 380.38H382.382V320.3200000000001H322.322V380.38zM322.322 290.29H382.382V230.23H322.322V290.29zM322.322 202.202H382.382V142.1420000000001H322.322V202.202zM232.2320000000001 468.4680000000001H292.2920000000001V408.408H232.2320000000001V468.4680000000001zM232.2320000000001 380.38H292.2920000000001V320.3200000000001H232.2320000000001V380.38zM232.2320000000001 290.29H292.2920000000001V230.23H232.2320000000001V290.29zM232.2320000000001 202.202H292.2920000000001V142.1420000000001H232.2320000000001V202.202zM144.144 468.468H204.204V408.408H144.144V468.468zM144.144 380.38H204.204V320.3200000000001H144.144V380.38zM144.144 290.29H204.204V230.23H144.144V290.29zM144.144 202.202H204.204V142.1420000000001H144.144V202.202zM352.3520000000001 632.6320000000001H382.382V602.6020000000001H352.3520000000001zM410.41 632.6320000000001H440.44V602.6020000000001H410.41zM930.93 780.78H886.886V826.826C886.886 834.8340000000001 880.88 840.84 872.8719999999998 840.84H812.8119999999999C804.8039999999999 840.84 798.7979999999998 834.8340000000001 798.7979999999998 826.826V306.306C798.7979999999998 302.3019999999999 800.7999999999998 298.298 802.8019999999999 296.296L832.8319999999999 266.266C838.8379999999999 260.26 848.8479999999998 260.26 854.8539999999999 266.266L884.8839999999999 296.296C886.886 298.298 888.8879999999999 302.3019999999999 888.8879999999999 306.306V752.752H918.918V558.558H948.948V766.7660000000001C946.946 774.774 938.938 780.78 930.93 780.78zM856.8559999999999 312.312L842.8419999999999 298.298L828.8279999999999 312.312V572.5720000000001H858.8579999999998V312.312zM856.8559999999999 602.6020000000001H826.8259999999999V750.75H856.8559999999999V602.6020000000001zM856.8559999999999 780.78H826.8259999999999V810.81H856.8559999999999V780.78z" />
    <glyph glyph-name="facebook"
      unicode="&#xE007;"
      horiz-adv-x="1001" d="M786.786 948.948H224.224C130.13 948.948 56.056 872.872 56.056 780.78V218.218C56.056 124.1239999999999 132.132 50.0500000000001 224.224 50.0500000000001H786.786C880.88 50.0500000000001 954.954 126.126 954.954 218.218V780.78C954.954 872.872 880.8799999999999 948.948 786.786 948.948zM622.622 498.498H548.548V228.228H446.4459999999999V498.498H378.378V590.59H446.4459999999999V644.644C446.4459999999999 720.72 466.466 766.766 556.5559999999999 766.766H630.6299999999999V674.674H584.584C550.55 674.674 548.5479999999999 662.662 548.5479999999999 636.636V590.59H632.6319999999998L622.6219999999998 498.498z" />
    <glyph glyph-name="google_mono"
      unicode="&#xE008;"
      horiz-adv-x="2214.601769911504" d="M1966.5663716814156 797.2566371681417H168.3097345132743C115.1592920353982 797.2566371681417 70.8672566371681 752.9646017699115 70.8672566371681 699.8141592920354V230.3185840707967C70.8672566371681 177.1681415929205 115.1592920353982 132.8761061946905 168.3097345132743 132.8761061946905H1966.5663716814156C2019.716814159292 132.8761061946905 2064.008849557522 177.1681415929205 2064.008849557522 230.3185840707967V695.3849557522124C2064.008849557522 752.9646017699115 2019.716814159292 797.2566371681417 1966.5663716814156 797.2566371681417zM2041.8628318584067 225.8893805309736C2041.8628318584067 181.5973451327435 2006.4292035398228 150.5929203539824 1966.5663716814156 150.5929203539824H168.3097345132743C128.4469026548673 150.5929203539824 93.0132743362832 186.0265486725665 93.0132743362832 225.8893805309736V695.3849557522124C93.0132743362832 735.2477876106195 128.4469026548672 770.6814159292036 168.3097345132743 770.6814159292036H1966.5663716814156C2010.8584070796455 770.6814159292036 2041.8628318584067 735.2477876106195 2041.8628318584067 695.3849557522124V225.8893805309736zM726.3893805309733 602.3716814159293C730.8185840707964 606.8008849557523 735.2477876106193 615.6592920353983 735.2477876106193 624.5176991150443S735.2477876106193 637.8053097345133 726.3893805309733 646.6637168141593C721.9601769911502 651.0929203539823 713.1017699115042 655.5221238938054 704.2433628318582 655.5221238938054H686.5265486725663V597.9424778761063H704.2433628318582C713.1017699115042 597.9424778761063 721.9601769911502 597.9424778761063 726.3893805309733 602.3716814159293zM695.3849557522122 646.6637168141593H704.2433628318582C708.6725663716812 646.6637168141593 717.5309734513273 646.6637168141593 721.9601769911502 642.2345132743363C726.3893805309733 637.8053097345133 726.3893805309733 633.3761061946904 726.3893805309733 624.5176991150443S721.9601769911502 611.2300884955753 721.9601769911502 606.8008849557523C717.5309734513272 606.8008849557523 713.1017699115042 602.3716814159293 704.2433628318582 602.3716814159293H695.3849557522122V646.6637168141593zM744.1061946902654 651.0929203539823H752.9646017699114V593.5132743362832H744.1061946902654zM779.5398230088496 602.3716814159293C775.1106194690265 602.3716814159293 775.1106194690265 602.3716814159293 770.6814159292036 606.8008849557523C766.2522123893805 606.8008849557523 766.2522123893805 611.2300884955753 766.2522123893805 615.6592920353983L757.3938053097345 611.2300884955753C757.3938053097345 606.8008849557523 761.8230088495576 602.3716814159293 766.2522123893805 597.9424778761062C770.6814159292036 593.5132743362832 775.1106194690265 593.5132743362832 779.5398230088496 593.5132743362832C779.5398230088496 593.5132743362832 783.9690265486726 593.5132743362832 788.3982300884956 597.9424778761062C792.8274336283185 597.9424778761062 792.8274336283185 597.9424778761062 792.8274336283185 602.3716814159292C797.2566371681417 602.3716814159292 797.2566371681417 602.3716814159292 801.6858407079645 606.8008849557522C801.6858407079645 606.8008849557522 806.1150442477876 611.2300884955752 806.1150442477876 615.6592920353982S806.1150442477876 620.0884955752211 801.6858407079645 624.5176991150441C801.6858407079645 628.9469026548671 797.2566371681415 628.9469026548671 797.2566371681415 628.9469026548671C792.8274336283184 628.9469026548671 792.8274336283184 633.3761061946901 792.8274336283184 633.3761061946901C788.3982300884953 633.3761061946901 788.3982300884953 633.3761061946901 783.9690265486724 637.8053097345131C779.5398230088493 637.8053097345131 779.5398230088493 637.8053097345131 775.1106194690265 642.2345132743361C775.1106194690265 646.6637168141591 770.6814159292034 646.6637168141591 770.6814159292034 646.6637168141591C770.6814159292034 651.0929203539821 770.6814159292034 651.0929203539821 775.1106194690265 655.5221238938052C779.5398230088496 655.5221238938052 779.5398230088496 659.9513274336282 783.9690265486724 659.9513274336282S788.3982300884956 659.9513274336282 792.8274336283184 655.5221238938052L797.2566371681415 651.0929203539822V646.6637168141593S797.2566371681415 651.0929203539823 792.8274336283184 651.0929203539823C788.3982300884953 655.5221238938053 788.3982300884953 655.5221238938053 779.5398230088493 655.5221238938053C775.1106194690263 655.5221238938053 770.6814159292034 651.0929203539823 766.2522123893804 651.0929203539823C761.8230088495573 646.6637168141593 761.8230088495573 642.2345132743363 761.8230088495573 642.2345132743363C761.8230088495573 637.8053097345133 761.8230088495573 633.3761061946904 766.2522123893804 633.3761061946904C770.6814159292034 628.9469026548674 775.1106194690263 628.9469026548674 779.5398230088493 628.9469026548674C783.9690265486724 628.9469026548674 788.3982300884953 624.5176991150444 788.3982300884953 624.5176991150444C792.8274336283184 624.5176991150444 792.8274336283184 620.0884955752214 792.8274336283184 615.6592920353984S792.8274336283184 611.2300884955754 788.3982300884953 606.8008849557524C788.3982300884953 606.8008849557524 783.9690265486723 602.3716814159294 779.5398230088493 602.3716814159294zM814.9734513274336 620.0884955752213H828.2610619469027C832.6902654867258 620.0884955752213 837.1194690265487 624.5176991150443 841.5486725663718 624.5176991150443C845.9778761061948 628.9469026548672 845.9778761061948 633.3761061946902 845.9778761061948 637.8053097345133C845.9778761061948 642.2345132743363 845.9778761061948 646.6637168141594 841.5486725663718 646.6637168141594C837.1194690265487 651.0929203539824 832.6902654867258 651.0929203539824 828.2610619469027 651.0929203539824H810.5442477876107V593.5132743362833H819.4026548672567V620.0884955752213zM814.9734513274336 646.6637168141593H828.2610619469027C832.6902654867258 646.6637168141593 832.6902654867258 646.6637168141593 837.1194690265487 642.2345132743363C837.1194690265487 637.8053097345133 841.5486725663718 637.8053097345133 841.5486725663718 633.3761061946904S841.5486725663718 628.9469026548674 837.1194690265487 624.5176991150444C837.1194690265487 624.5176991150444 832.6902654867256 620.0884955752214 828.2610619469027 620.0884955752214H814.9734513274336V646.6637168141593zM881.4115044247787 597.9424778761063C890.2699115044247 597.9424778761063 894.6991150442478 602.3716814159293 903.5575221238938 606.8008849557523C907.986725663717 611.2300884955753 912.4159292035398 620.0884955752213 912.4159292035398 628.9469026548672S907.9867256637166 642.2345132743363 903.5575221238938 651.0929203539823C899.1283185840707 655.5221238938053 890.2699115044247 659.9513274336284 881.4115044247787 659.9513274336284S868.1238938053098 655.5221238938054 859.2654867256638 651.0929203539823C854.8362831858407 646.6637168141593 850.4070796460178 637.8053097345132 850.4070796460178 628.9469026548672S854.8362831858408 615.6592920353983 859.2654867256638 606.8008849557523S872.5530973451328 597.9424778761063 881.4115044247787 597.9424778761063zM863.6946902654868 642.2345132743363C868.1238938053099 646.6637168141593 872.5530973451328 646.6637168141593 881.4115044247787 646.6637168141593C885.8407079646018 646.6637168141593 890.2699115044247 646.6637168141593 894.6991150442478 642.2345132743363C899.1283185840709 637.8053097345133 903.5575221238938 633.3761061946904 903.5575221238938 624.5176991150443S899.1283185840707 611.2300884955753 894.6991150442478 606.8008849557523C890.2699115044247 602.3716814159293 885.8407079646018 602.3716814159293 881.4115044247787 602.3716814159293C876.9823008849557 602.3716814159293 868.1238938053098 606.8008849557523 868.1238938053098 611.2300884955753C863.6946902654867 615.6592920353983 863.6946902654867 620.0884955752213 859.2654867256638 628.9469026548672C859.2654867256638 633.3761061946902 859.2654867256638 637.8053097345132 863.6946902654868 642.2345132743363zM925.7035398230088 633.3761061946904V642.2345132743363L956.7079646017698 597.9424778761063H961.137168141593V651.0929203539823H956.7079646017698V606.8008849557523L925.7035398230088 651.0929203539823H921.2743362831858V597.9424778761063H925.7035398230088zM987.712389380531 668.8097345132744H978.853982300885L974.4247787610618 659.9513274336284H983.2831858407078zM978.853982300885 651.0929203539824H987.712389380531V593.5132743362833H978.853982300885zM1032.004424778761 651.0929203539824L1014.287610619469 606.8008849557523L1001 651.0929203539824H992.141592920354L1009.858407079646 597.9424778761063H1018.716814159292L1036.433628318584 651.0929203539824zM1080.7256637168139 602.3716814159293H1054.150442477876V620.0884955752213H1076.2964601769909V628.9469026548672H1054.150442477876V646.6637168141593H1080.7256637168139V651.0929203539823H1045.29203539823V597.9424778761063H1080.7256637168139zM1120.588495575221 602.3716814159293H1098.4424778761058V651.0929203539823H1089.5840707964599V597.9424778761063H1120.588495575221zM1195.8849557522121 597.9424778761063V651.0929203539823H1187.0265486725662V606.8008849557523L1160.451327433628 651.0929203539823H1151.5929203539822V597.9424778761063H1156.0221238938052V642.2345132743363L1187.0265486725664 597.9424778761063zM1231.3185840707963 597.9424778761063C1240.1769911504423 597.9424778761063 1244.6061946902653 602.3716814159293 1253.4646017699113 606.8008849557523C1257.8938053097343 611.2300884955753 1262.3230088495573 620.0884955752213 1262.3230088495573 628.9469026548672S1262.3230088495573 642.2345132743363 1253.4646017699113 651.0929203539823C1249.0353982300883 655.5221238938053 1240.1769911504423 659.9513274336284 1231.3185840707963 659.9513274336284S1218.030973451327 655.5221238938054 1209.1725663716811 651.0929203539823C1204.7433628318581 646.6637168141593 1200.3141592920351 637.8053097345132 1200.3141592920351 628.9469026548672S1204.7433628318583 615.6592920353983 1209.1725663716811 606.8008849557523C1218.030973451327 597.9424778761063 1226.889380530973 597.9424778761063 1231.3185840707963 597.9424778761063zM1218.030973451327 642.2345132743363C1222.4601769911503 646.6637168141593 1226.889380530973 646.6637168141593 1231.3185840707963 646.6637168141593C1240.1769911504423 646.6637168141593 1244.6061946902653 646.6637168141593 1249.0353982300883 642.2345132743363C1253.4646017699113 637.8053097345133 1257.8938053097343 633.3761061946904 1257.8938053097343 624.5176991150443S1253.464601769911 611.2300884955753 1249.0353982300883 606.8008849557523C1244.606194690265 602.3716814159293 1240.1769911504423 602.3716814159293 1231.3185840707963 602.3716814159293C1226.889380530973 602.3716814159293 1218.030973451327 606.8008849557523 1218.030973451327 611.2300884955753C1213.601769911504 615.6592920353983 1213.601769911504 620.0884955752213 1209.1725663716811 628.9469026548672C1209.1725663716811 633.3761061946902 1213.6017699115043 637.8053097345132 1218.030973451327 642.2345132743363zM775.1106194690263 420.7743362831859H845.9778761061945C845.9778761061945 403.0575221238938 837.1194690265485 389.7699115044249 828.2610619469025 380.9115044247789C814.9734513274335 367.6238938053098 797.2566371681415 358.7654867256638 775.1106194690265 358.7654867256638C757.3938053097345 358.7654867256638 739.6769911504424 367.6238938053098 721.9601769911504 380.9115044247789C708.6725663716813 394.1991150442479 699.8141592920354 411.9159292035398 699.8141592920354 434.0619469026549S708.6725663716813 473.9247787610619 721.9601769911504 491.641592920354C735.2477876106194 504.9292035398231 752.9646017699114 513.7876106194691 775.1106194690265 513.7876106194691S814.9734513274335 504.9292035398231 828.2610619469025 491.641592920354L845.9778761061945 509.3584070796461C837.1194690265485 518.2168141592921 828.2610619469025 522.6460176991152 814.9734513274335 531.5044247787612C801.6858407079644 535.9336283185842 788.3982300884953 540.3628318584072 775.1106194690265 540.3628318584072C748.5353982300884 540.3628318584072 726.3893805309733 531.5044247787612 704.2433628318583 509.3584070796461C686.5265486725663 491.641592920354 673.2389380530973 465.0663716814161 673.2389380530973 438.491150442478C673.2389380530973 411.9159292035399 682.0973451327433 385.3407079646019 704.2433628318583 367.6238938053099C721.9601769911504 345.4778761061948 744.1061946902654 336.6194690265488 775.1106194690265 336.6194690265488S828.2610619469025 345.4778761061948 845.9778761061947 363.1946902654869C859.2654867256638 380.9115044247789 868.1238938053098 398.628318584071 868.1238938053098 425.203539823009V438.4911504424781H775.1106194690265V420.774336283186zM947.8495575221236 473.9247787610619C930.1327433628315 473.9247787610619 912.4159292035393 465.0663716814161 899.1283185840704 456.20796460177C885.8407079646014 442.9203539823009 881.4115044247784 425.2035398230089 881.4115044247784 407.4867256637168C881.4115044247784 389.7699115044249 885.8407079646015 372.0530973451328 899.1283185840704 358.7654867256638C912.4159292035393 345.4778761061947 925.7035398230086 341.0486725663717 947.8495575221236 341.0486725663717C965.5663716814154 341.0486725663717 983.2831858407076 349.9070796460177 996.5707964601768 358.7654867256638C1009.8584070796458 372.0530973451329 1014.2876106194688 389.7699115044249 1014.2876106194688 407.4867256637168C1014.2876106194688 425.2035398230089 1009.8584070796456 442.920353982301 996.5707964601768 456.20796460177C983.2831858407076 469.4955752212391 965.5663716814158 473.9247787610619 947.8495575221236 473.9247787610619zM978.8539823008846 372.0530973451329C969.9955752212386 363.1946902654869 961.1371681415926 358.7654867256638 947.8495575221236 358.7654867256638C934.5619469026547 358.7654867256638 925.7035398230086 363.1946902654868 916.8451327433626 372.0530973451329C907.9867256637166 380.9115044247789 903.5575221238934 389.7699115044249 903.5575221238934 407.4867256637169C903.5575221238934 420.774336283186 907.9867256637166 434.061946902655 916.8451327433626 442.9203539823011C925.7035398230086 451.7787610619471 934.5619469026547 456.2079646017701 947.8495575221236 456.2079646017701C961.1371681415926 456.2079646017701 969.9955752212386 451.7787610619471 978.8539823008846 442.9203539823011S992.1415929203536 425.203539823009 992.1415929203536 407.4867256637169S987.7123893805306 380.9115044247789 978.8539823008846 372.0530973451329zM1089.5840707964599 473.924778761062C1071.8672566371679 473.924778761062 1054.1504424778757 465.0663716814161 1040.8628318584067 456.2079646017701C1027.5752212389375 442.920353982301 1023.1460176991149 425.203539823009 1023.1460176991149 407.4867256637169C1023.1460176991149 389.7699115044249 1027.5752212389377 372.0530973451329 1040.8628318584067 358.7654867256639C1054.1504424778757 345.4778761061948 1067.4380530973447 341.0486725663718 1089.5840707964599 341.0486725663718C1107.3008849557518 341.0486725663718 1125.0176991150438 349.9070796460178 1138.305309734513 358.7654867256639C1151.592920353982 372.0530973451329 1156.022123893805 389.7699115044249 1156.022123893805 407.4867256637169C1156.022123893805 425.203539823009 1151.5929203539818 442.9203539823011 1138.305309734513 456.2079646017701C1125.0176991150438 469.4955752212391 1111.7300884955748 473.924778761062 1089.5840707964599 473.924778761062zM1120.5884955752208 372.0530973451329C1111.7300884955748 363.1946902654869 1102.8716814159288 358.7654867256638 1089.5840707964599 358.7654867256638C1076.2964601769906 358.7654867256638 1067.4380530973447 363.1946902654868 1058.5796460176987 372.0530973451329C1049.7212389380527 380.9115044247789 1045.2920353982297 389.7699115044249 1045.2920353982297 407.4867256637169C1045.2920353982297 420.774336283186 1049.7212389380527 434.061946902655 1058.5796460176987 442.9203539823011C1067.4380530973447 451.7787610619471 1076.2964601769906 456.2079646017701 1089.5840707964599 456.2079646017701C1102.8716814159288 456.2079646017701 1111.7300884955748 451.7787610619471 1120.5884955752208 442.9203539823011C1129.4469026548668 434.0619469026551 1133.8761061946898 425.203539823009 1133.8761061946898 407.4867256637169S1129.4469026548668 380.9115044247789 1120.5884955752208 372.0530973451329zM1275.6106194690262 451.7787610619471C1271.181415929203 460.6371681415931 1262.323008849557 465.0663716814161 1257.8938053097343 469.4955752212391C1249.0353982300883 473.924778761062 1240.1769911504423 473.924778761062 1231.318584070796 473.924778761062C1213.601769911504 473.924778761062 1200.3141592920351 465.0663716814161 1187.026548672566 456.2079646017701C1173.738938053097 442.920353982301 1169.309734513274 425.203539823009 1169.309734513274 407.4867256637169C1169.309734513274 389.7699115044249 1173.7389380530972 372.0530973451329 1187.026548672566 358.7654867256639C1200.3141592920351 345.4778761061948 1213.601769911504 341.0486725663718 1231.318584070796 341.0486725663718C1240.176991150442 341.0486725663718 1249.035398230088 345.4778761061948 1257.8938053097343 349.9070796460178C1266.7522123893802 354.3362831858408 1271.1814159292032 358.7654867256638 1275.6106194690262 367.6238938053099V354.3362831858408C1275.6106194690262 341.0486725663717 1271.181415929203 327.7610619469027 1262.323008849557 323.3318584070797C1253.464601769911 314.4734513274338 1244.606194690265 310.0442477876108 1231.318584070796 310.0442477876108C1222.46017699115 310.0442477876108 1213.601769911504 314.4734513274338 1209.1725663716811 318.9026548672568C1200.3141592920351 323.3318584070797 1195.884955752212 327.7610619469027 1195.884955752212 336.6194690265487L1173.738938053097 327.7610619469027C1178.16814159292 318.9026548672568 1187.026548672566 310.0442477876108 1195.884955752212 301.1858407079648C1204.743362831858 292.3274336283188 1218.030973451327 287.8982300884958 1235.747787610619 287.8982300884958S1271.181415929203 292.3274336283188 1284.4690265486722 305.6150442477878C1297.7566371681412 318.9026548672569 1302.1858407079642 336.6194690265488 1302.1858407079642 358.7654867256639V482.783185840708H1280.039823008849V451.7787610619471zM1262.323008849557 372.0530973451329C1253.464601769911 363.1946902654869 1244.606194690265 358.7654867256638 1231.318584070796 358.7654867256638C1218.030973451327 358.7654867256638 1209.1725663716811 363.1946902654868 1200.3141592920351 372.0530973451329C1191.4557522123891 380.9115044247789 1187.026548672566 389.7699115044249 1187.026548672566 407.4867256637169C1187.026548672566 420.774336283186 1191.4557522123891 434.061946902655 1200.3141592920351 442.9203539823011C1209.1725663716811 451.7787610619471 1218.030973451327 456.2079646017701 1231.318584070796 456.2079646017701C1244.606194690265 456.2079646017701 1253.464601769911 451.7787610619471 1262.323008849557 442.9203539823011C1271.181415929203 434.0619469026551 1275.6106194690262 420.774336283186 1275.6106194690262 407.4867256637169C1271.181415929203 389.7699115044249 1271.181415929203 380.9115044247789 1262.323008849557 372.0530973451329zM1319.9026548672562 531.5044247787612H1346.4778761061943V341.0486725663718H1319.9026548672562zM1426.2035398230084 473.9247787610619C1404.0575221238935 473.9247787610619 1390.7699115044245 465.0663716814161 1377.4823008849553 451.778761061947C1364.1946902654863 438.4911504424779 1359.7654867256633 420.7743362831859 1359.7654867256633 403.0575221238938C1359.7654867256633 385.3407079646019 1364.1946902654865 367.6238938053098 1377.4823008849553 354.3362831858408C1390.7699115044245 341.0486725663717 1404.0575221238935 336.6194690265487 1426.2035398230084 336.6194690265487C1439.4911504424774 336.6194690265487 1452.7787610619466 341.0486725663717 1461.6371681415924 345.4778761061947C1470.4955752212386 354.3362831858407 1479.3539823008844 358.7654867256638 1483.7831858407076 372.0530973451328L1461.6371681415928 380.9115044247789C1452.7787610619466 367.6238938053098 1443.9203539823009 358.7654867256638 1426.203539823009 358.7654867256638C1417.3451327433627 358.7654867256638 1408.486725663717 363.1946902654868 1399.6283185840707 372.0530973451329C1390.7699115044247 380.9115044247789 1386.3407079646017 389.7699115044249 1386.3407079646017 403.0575221238938H1488.2123893805308V407.4867256637168C1488.2123893805308 429.6327433628319 1483.7831858407078 447.349557522124 1470.4955752212388 460.637168141593C1461.6371681415928 469.4955752212389 1443.9203539823009 473.9247787610619 1426.203539823009 473.9247787610619zM1386.3407079646015 420.7743362831859C1390.7699115044245 429.6327433628319 1395.1991150442475 438.491150442478 1399.6283185840705 442.920353982301C1404.0575221238937 447.349557522124 1412.9159292035397 451.778761061947 1421.7743362831854 451.778761061947C1435.0619469026544 451.778761061947 1443.9203539823004 447.349557522124 1448.3495575221236 442.920353982301C1457.2079646017696 438.491150442478 1457.2079646017696 429.6327433628319 1457.2079646017696 420.7743362831859H1386.3407079646015zM1625.5176991150438 531.5044247787612H1559.0796460176987V341.0486725663718H1585.6548672566369V416.3451327433629H1625.5176991150438C1643.2345132743358 416.3451327433629 1656.522123893805 420.7743362831859 1669.809734513274 434.061946902655C1683.097345132743 442.920353982301 1687.526548672566 460.6371681415931 1687.526548672566 473.924778761062S1683.097345132743 504.9292035398231 1669.809734513274 513.7876106194692C1656.522123893805 527.0752212389382 1643.2345132743358 531.5044247787612 1625.5176991150438 531.5044247787612zM1652.092920353982 451.778761061947C1647.663716814159 442.920353982301 1638.805309734513 442.920353982301 1625.5176991150438 442.920353982301H1585.6548672566369V509.3584070796461H1625.5176991150438C1634.37610619469 509.3584070796461 1643.2345132743358 504.9292035398231 1652.092920353982 500.5000000000001C1656.522123893805 491.6415929203541 1660.9513274336282 487.212389380531 1660.9513274336282 478.353982300885S1656.522123893805 456.2079646017701 1652.092920353982 451.7787610619471zM1700.8141592920351 531.5044247787612H1727.3893805309733V341.0486725663718H1700.8141592920351zM1798.2566371681414 473.9247787610619C1784.9690265486727 473.9247787610619 1771.6814159292035 469.4955752212391 1762.8230088495575 465.0663716814161C1753.9646017699115 456.2079646017701 1749.5353982300887 451.778761061947 1745.1061946902655 442.920353982301L1767.2522123893807 434.061946902655C1771.6814159292037 438.491150442478 1771.6814159292037 442.920353982301 1780.5398230088495 447.3495575221241C1784.9690265486727 451.7787610619471 1793.8274336283184 451.7787610619471 1798.2566371681414 451.7787610619471C1807.1150442477876 451.7787610619471 1815.9734513274332 447.3495575221241 1824.8318584070796 442.9203539823011C1829.2610619469028 438.4911504424781 1833.690265486726 429.632743362832 1833.690265486726 420.774336283186V416.345132743363C1824.8318584070796 420.774336283186 1811.5442477876109 425.203539823009 1798.2566371681419 425.203539823009C1780.53982300885 425.203539823009 1767.2522123893807 420.774336283186 1758.3938053097347 411.9159292035399C1749.5353982300887 403.057522123894 1740.6769911504427 394.1991150442479 1740.6769911504427 376.4823008849559C1740.6769911504427 363.1946902654868 1745.106194690266 354.3362831858408 1753.9646017699117 345.4778761061948C1762.823008849558 336.6194690265488 1776.1106194690267 332.1902654867257 1789.3982300884957 332.1902654867257C1807.1150442477876 332.1902654867257 1820.4026548672568 341.0486725663717 1833.690265486726 354.3362831858408V336.6194690265487H1855.8362831858408V416.3451327433629C1855.8362831858408 434.061946902655 1851.4070796460176 447.349557522124 1838.1194690265488 456.2079646017701C1829.2610619469028 469.4955752212391 1815.973451327434 473.924778761062 1798.2566371681419 473.924778761062zM1820.4026548672568 367.6238938053098C1811.5442477876104 358.7654867256638 1802.6858407079649 354.3362831858407 1793.8274336283184 354.3362831858407C1784.9690265486722 354.3362831858407 1780.5398230088495 358.7654867256637 1776.1106194690265 358.7654867256637C1771.6814159292035 363.1946902654867 1767.2522123893802 367.6238938053097 1767.2522123893802 372.0530973451328C1767.2522123893802 380.9115044247788 1771.6814159292035 385.3407079646019 1776.1106194690265 389.7699115044249C1780.5398230088495 394.1991150442479 1789.3982300884952 398.6283185840709 1802.6858407079649 398.6283185840709S1829.2610619469028 394.1991150442479 1833.690265486726 389.7699115044249C1833.690265486726 385.3407079646019 1829.2610619469028 376.4823008849558 1820.4026548672568 367.6238938053098zM1926.703539823009 376.4823008849558L1886.8407079646015 469.4955752212389H1860.2654867256635L1913.4159292035397 349.9070796460177L1886.8407079646015 283.4690265486726H1908.9867256637167L1993.1415929203536 469.4955752212391H1966.5663716814156zM434.0619469026549 434.0619469026549L354.3362831858407 513.7876106194691C314.4734513274336 558.0796460176991 270.1814159292035 602.3716814159293 230.3185840707965 642.2345132743363C225.8893805309735 646.6637168141593 225.8893805309735 646.6637168141593 225.8893805309735 642.2345132743363C217.0309734513275 637.8053097345133 217.0309734513275 628.9469026548672 217.0309734513275 624.5176991150443V256.8938053097346C217.0309734513275 248.0353982300886 221.4601769911504 243.6061946902655 225.8893805309735 234.7477876106196C230.3185840707965 230.3185840707964 234.7477876106195 230.3185840707964 234.7477876106195 234.7477876106196C301.1858407079646 301.1858407079647 363.1946902654867 367.6238938053098 429.6327433628319 429.6327433628319C438.4911504424779 429.6327433628319 438.4911504424779 434.0619469026549 434.0619469026549 434.0619469026549zM243.6061946902655 646.6637168141593C310.0442477876106 575.7964601769912 376.4823008849557 509.3584070796461 442.9203539823009 442.920353982301C447.3495575221238 438.491150442478 447.3495575221238 438.491150442478 447.3495575221238 442.920353982301L504.929203539823 500.5000000000001C509.358407079646 504.9292035398231 509.358407079646 504.9292035398231 504.929203539823 504.9292035398231C420.7743362831858 553.6504424778761 336.6194690265487 597.9424778761063 252.4646017699115 646.6637168141593C248.0353982300885 646.6637168141593 243.6061946902655 651.0929203539823 243.6061946902655 646.6637168141593zM261.3230088495576 234.7477876106196zM496.0707964601769 372.0530973451328C482.7831858407079 389.7699115044249 465.0663716814159 403.0575221238938 447.3495575221238 420.7743362831858C442.9203539823009 425.2035398230088 442.9203539823009 425.2035398230088 438.4911504424779 420.7743362831858L256.8938053097346 239.1769911504424C336.6194690265487 283.4690265486726 411.9159292035398 323.3318584070796 491.641592920354 367.6238938053097C500.5 367.6238938053097 500.5 367.6238938053097 496.070796460177 372.0530973451327zM593.5132743362831 451.778761061947C571.367256637168 465.0663716814161 544.7920353982299 478.3539823008849 522.646017699115 491.641592920354H513.787610619469L456.2079646017698 434.0619469026549C451.7787610619468 429.6327433628319 451.7787610619468 429.6327433628319 456.2079646017698 429.6327433628319C473.9247787610619 411.9159292035398 491.6415929203539 394.1991150442479 504.9292035398229 376.4823008849559C509.3584070796459 372.0530973451329 509.3584070796459 372.0530973451329 513.7876106194689 376.4823008849559C535.9336283185839 389.7699115044249 562.5088495575219 403.0575221238938 584.654867256637 416.3451327433629C589.08407079646 420.7743362831859 593.513274336283 420.7743362831859 597.9424778761061 425.2035398230089C602.3716814159291 429.6327433628319 606.800884955752 434.0619469026549 606.800884955752 438.491150442478C606.800884955752 447.349557522124 602.3716814159291 451.7787610619471 593.513274336283 451.7787610619471z" />
    <glyph glyph-name="instagram"
      unicode="&#xE009;"
      horiz-adv-x="1001" d="M860.86 948.948H142.142C92.092 948.948 52.052 908.908 52.052 858.858V140.14C52.052 90.09 92.092 50.0500000000001 142.142 50.0500000000001H860.86C910.91 50.0500000000001 950.95 90.09 950.95 140.14V858.858C950.95 908.908 908.908 948.948 860.86 948.948zM500.5 678.678C598.598 678.678 680.68 598.598 680.68 498.498S600.6 318.318 500.5 318.318C402.4020000000001 318.318 320.32 398.398 320.32 498.498S402.4020000000001 678.678 500.5 678.678zM860.86 162.1619999999999C860.86 148.1479999999998 852.852 140.1399999999999 838.838 140.1399999999999H164.164C150.15 140.1399999999999 142.142 148.1479999999998 142.142 162.1619999999999V544.544H236.236C232.2320000000001 530.53 232.2320000000001 512.512 232.2320000000001 500.5C232.2320000000001 352.3520000000001 354.3540000000001 230.23 502.502 230.23S772.772 352.3520000000001 772.772 500.5C772.772 514.514 772.772 532.532 768.7679999999999 544.544H860.86V162.1619999999999zM860.86 746.7459999999999C860.86 732.732 852.852 724.7239999999999 838.838 724.7239999999999H748.7479999999999C734.7339999999999 724.7239999999999 726.7259999999999 732.732 726.7259999999999 746.7459999999999V836.836C726.7259999999999 850.85 734.7339999999999 858.858 748.7479999999999 858.858H838.838C852.852 858.858 860.86 850.85 860.86 836.836V746.746z" />
    <glyph glyph-name="linkedin"
      unicode="&#xE00A;"
      horiz-adv-x="1001" d="M860.86 942.942H148.148C100.1 942.942 60.06 902.902 60.06 852.852V140.14C60.06 92.0920000000001 100.1 52.052 148.148 52.052H860.86C908.908 52.052 948.948 92.0920000000001 948.948 140.14V852.852C948.948 902.902 908.908 942.942 860.86 942.942zM326.326 186.1859999999999H194.194V586.586H328.328V186.1859999999999zM260.26 662.662C216.216 662.662 180.18 698.6980000000001 180.18 742.742S216.216 822.822 260.26 822.822S340.34 786.7860000000001 340.34 742.742S304.304 662.662 260.26 662.662zM816.8159999999999 186.1859999999999H682.6819999999999V422.4220000000001C682.6819999999999 458.4580000000001 650.6499999999999 488.4880000000001 616.6159999999999 488.4880000000001C580.5799999999998 488.4880000000001 550.5499999999998 456.456 550.5499999999998 422.4220000000001V186.1859999999999H416.4159999999999V586.586H550.5499999999998V532.5319999999999C572.5719999999999 568.568 622.6219999999998 594.594 662.6619999999999 594.594C746.746 594.594 818.8179999999998 522.5219999999999 818.8179999999998 438.438V186.1859999999999z" />
    <glyph glyph-name="mulher"
      unicode="&#xE00B;"
      horiz-adv-x="1001" d="M778.7779999999999 378.378L784.7839999999999 394.394C804.8039999999999 450.45 790.7899999999998 514.514 748.7479999999999 556.5559999999999C724.7239999999999 578.578 712.712 610.6099999999999 712.712 642.6419999999999V668.668C740.74 684.684 750.75 720.72 734.734 750.75C728.7280000000001 758.758 722.722 766.766 712.712 772.7719999999999C708.708 886.886 614.6139999999999 978.978 500.5 976.976C384.384 974.974 292.292 880.88 294.294 764.764V644.644C294.294 612.6120000000001 280.28 580.5800000000002 258.258 558.558C216.216 516.5160000000001 202.202 452.452 224.224 394.3940000000001L230.23 380.3800000000001C206.206 350.35 192.192 314.3140000000001 192.192 274.2740000000001V82.082H220.22V274.2740000000001C220.22 348.3480000000002 280.28 408.408 354.354 408.408V82.082H384.384V366.366L490.49 178.178C494.494 170.1700000000001 504.504 168.168 510.51 172.172L516.516 178.178L622.6220000000001 366.366V82.0819999999999H652.652V408.408C726.7260000000001 408.408 786.7860000000001 348.348 786.7860000000001 274.2739999999999V82.0819999999999H816.816V274.2739999999999C814.8140000000001 312.3119999999999 802.802 350.3499999999999 778.7780000000001 378.378zM710.71 720.72C710.71 704.704 696.6959999999999 690.69 680.68 690.69V750.75C698.698 750.75 710.71 736.7360000000001 710.71 720.72zM496.496 950.95C594.594 954.954 678.678 878.878 682.682 780.78H668.668C590.59 780.78 550.55 902.902 550.55 904.904C550.55 912.912 542.542 918.918 534.534 918.918S520.52 910.91 520.52 902.902C492.492 792.792 336.336 704.704 334.334 704.704C330.33 702.702 326.326 696.6959999999999 326.326 690.69V764.764C320.32 862.862 396.396 946.946 496.496 950.95zM436.436 740.74C476.476 772.7719999999999 510.51 812.812 534.534 858.858C554.5540000000001 818.818 592.592 760.76 652.652 752.7520000000001V660.6600000000001C652.652 578.578 586.586 512.5120000000001 504.504 512.5120000000001C422.4220000000001 512.5120000000001 356.3560000000001 578.578 356.3560000000001 660.6600000000001V682.682C364.3640000000001 686.6859999999999 376.3760000000001 694.694 390.3900000000001 704.704C400.4000000000001 690.69 418.418 686.6859999999999 432.4320000000001 696.6959999999999C440.4400000000001 702.702 446.4460000000001 710.71 446.4460000000001 720.72C444.4440000000001 726.726 440.4400000000001 734.7339999999999 436.4360000000001 740.74zM354.3540000000001 438.438C316.3160000000001 438.438 282.2820000000001 426.426 252.2520000000001 402.402V404.404C234.2340000000001 450.45 246.2460000000001 500.5 280.2800000000001 536.536C308.3080000000001 564.5639999999999 324.3240000000001 604.6039999999999 324.3240000000001 644.644V660.6600000000001C324.3240000000001 596.596 358.3580000000001 538.538 414.4140000000001 506.506V438.4380000000001H354.3540000000001zM502.502 216.216L394.3940000000001 408.408H428.4280000000001C436.436 408.408 442.442 414.414 442.442 422.4220000000001V492.492C480.48 478.478 522.522 478.478 560.56 492.492V422.4220000000001C560.56 414.414 566.566 408.408 574.574 408.408H608.608L502.502 216.216zM756.756 404.4039999999999L754.7539999999999 400.4C726.7259999999999 424.424 688.688 436.4359999999999 652.6519999999998 436.4359999999999H592.5919999999999V504.5039999999999C648.6479999999998 536.536 682.6819999999999 594.5939999999999 682.6819999999999 658.6579999999999V642.6419999999998C682.6819999999999 600.5999999999999 698.6979999999999 562.5619999999999 728.7279999999998 532.5319999999999C760.7599999999999 500.4999999999999 772.7719999999998 450.4499999999998 756.7559999999997 404.4039999999999zM562.562 720.72A30.029999999999994 30.029999999999994 0 0 1 622.6220000000001 720.72A30.029999999999994 30.029999999999994 0 0 1 562.562 720.72M474.474 602.6020000000001V572.5720000000001H492.492C522.5219999999999 572.5720000000001 552.5519999999999 584.5840000000001 574.574 606.606L552.5519999999999 628.628C536.5359999999998 612.6120000000001 514.5139999999999 602.6020000000001 490.4899999999998 602.6020000000001H474.4739999999998zM466.466 632.6320000000001C468.468 630.63 470.47 630.63 472.472 630.63H516.516V660.6600000000001H496.496L514.514 698.6980000000001L488.4879999999999 712.712L458.458 652.652C456.456 644.644 460.46 636.636 466.466 632.6320000000001z" />
    <glyph glyph-name="twitter"
      unicode="&#xE00C;"
      horiz-adv-x="1001" d="M792.792 942.942H234.234C142.142 942.942 66.066 868.868 66.066 774.774V216.216C66.066 124.1239999999999 140.14 48.048 234.234 48.048H792.7919999999999C884.8839999999999 48.048 960.9599999999998 122.1220000000001 960.9599999999998 216.216V774.774C960.9599999999998 866.866 884.8839999999999 942.942 792.7919999999999 942.942zM736.7360000000001 596.596V582.5820000000001C736.7360000000001 436.4360000000001 626.6260000000001 270.27 424.4240000000001 270.27C362.362 270.27 304.3040000000001 288.288 256.2560000000001 320.3200000000001C264.2640000000001 320.3200000000001 274.2740000000001 318.318 282.2820000000001 318.318C334.3340000000001 318.318 380.3800000000001 336.336 418.418 366.366C370.3700000000001 366.366 330.33 398.398 316.3160000000001 442.442C322.322 440.44 330.3300000000001 440.44 336.3360000000001 440.44C346.3460000000001 440.44 356.3560000000001 442.442 364.3640000000001 444.444C314.3140000000001 454.454 276.2760000000001 498.4979999999999 276.2760000000001 552.5519999999999V554.5539999999999C290.29 546.5459999999999 308.3080000000001 540.54 326.3260000000001 540.54C296.2960000000001 560.56 278.2780000000001 594.5939999999999 278.2780000000001 632.6319999999998C278.2780000000001 652.6519999999998 284.2840000000001 670.6699999999998 292.2920000000001 688.6879999999999C346.3460000000001 622.6219999999998 428.4280000000001 578.578 518.5180000000001 574.5739999999998C516.5160000000001 582.5819999999999 516.5160000000001 590.5899999999999 516.5160000000001 600.5999999999999C516.5160000000001 660.6599999999999 566.566 710.7099999999999 626.6260000000001 710.7099999999999C658.6580000000001 710.7099999999999 686.686 696.6959999999999 706.706 676.6759999999999C732.732 680.68 754.754 690.6899999999999 776.7760000000001 702.702C768.7680000000001 676.6759999999999 750.7500000000001 654.654 728.7280000000001 642.6419999999999C750.7500000000001 644.644 772.7720000000002 650.6499999999999 792.7920000000001 660.6599999999999C776.7760000000002 630.6299999999999 758.7580000000002 612.612 736.7360000000002 596.596z" />
    <glyph glyph-name="user"
      unicode="&#xE00D;"
      horiz-adv-x="1001" d="M952.952 500.5C952.952 748.748 750.75 948.948 504.504 948.948C258.258 948.948 56.056 746.746 56.056 500.5C56.056 370.37 112.112 252.2520000000001 202.202 170.1700000000001L216.216 158.158L218.218 156.156L242.242 138.138C244.244 136.136 248.248 134.1339999999999 250.25 132.1320000000001C258.258 126.1260000000001 268.268 120.12 276.276 114.114C278.278 112.1120000000001 280.28 112.1120000000001 282.282 110.11C292.292 104.104 302.302 98.098 312.312 94.0940000000001C312.312 94.0940000000001 314.314 94.0940000000001 314.314 92.0920000000001C348.348 76.0760000000001 384.384 64.0640000000001 422.4220000000001 58.058H426.426C438.4380000000001 56.0559999999999 450.45 54.054 462.462 54.054H466.466C478.478 54.054 490.49 52.0519999999999 502.502 52.0519999999999C514.514 52.0519999999999 526.526 52.0519999999999 538.538 54.054H542.542C554.5540000000001 56.0559999999999 566.566 56.0559999999999 578.578 58.058H582.582C620.62 64.064 656.6560000000001 76.0759999999999 688.688 92.0920000000001C690.6899999999999 92.0920000000001 690.6899999999999 94.0940000000001 692.692 94.0940000000001C702.702 98.0980000000002 712.712 104.104 722.722 110.11C724.724 112.1120000000001 726.7260000000001 112.1120000000001 730.73 114.114C738.7379999999999 120.12 748.7479999999999 124.124 756.756 130.13C758.7579999999999 132.1320000000001 762.7619999999998 134.1340000000001 764.7639999999999 136.136C772.7719999999998 142.142 778.7779999999999 146.146 786.786 152.1519999999999C788.788 154.1539999999999 790.79 154.1539999999999 790.79 156.156L804.8040000000001 168.168C896.8960000000001 250.25 952.952 368.368 952.952 500.5zM780.78 188.188C776.776 192.192 770.77 194.194 766.766 196.1959999999999L628.6279999999999 266.266C616.616 272.272 608.608 284.2839999999999 608.608 298.298V346.346C612.612 350.35 614.6139999999999 354.354 618.6179999999999 360.36C636.636 386.3860000000001 650.65 414.414 660.66 444.444C680.68 454.454 694.6940000000001 474.474 694.6940000000001 498.498V556.5559999999999C694.6940000000001 570.5699999999999 688.6880000000001 584.584 680.68 594.5939999999999V670.67C680.68 678.6779999999999 684.6840000000001 726.7259999999999 650.65 766.766C620.62 800.8 572.572 818.818 506.506 818.818C440.44 818.818 392.392 800.8 362.362 766.766C328.3280000000001 726.7259999999999 330.33 678.678 332.332 670.67V594.5939999999999C322.322 584.584 318.3180000000001 570.5699999999999 318.3180000000001 556.5559999999999V498.498C318.3180000000001 480.48 326.326 464.4639999999999 340.3400000000001 452.452C354.3540000000001 400.4 380.3800000000001 362.362 390.3900000000001 348.348V300.3000000000001C390.3900000000001 286.286 382.3820000000001 274.2740000000001 372.3720000000001 268.2680000000001L244.2440000000001 198.198C240.2400000000001 196.1959999999999 236.2360000000001 194.194 232.2320000000001 190.1900000000001C142.1420000000001 266.266 88.0880000000001 376.376 88.0880000000001 500.5C88.0880000000001 730.73 274.2740000000001 916.916 504.5040000000001 916.916S920.92 728.7280000000001 920.92 500.5C920.92 376.376 866.8659999999999 264.2640000000001 780.78 188.188z" />
    <glyph glyph-name="youtube"
      unicode="&#xE00E;"
      horiz-adv-x="1001" d="M778.7779999999999 940.94H226.226C134.134 940.94 60.06 866.866 60.06 774.774V220.22C60.06 128.1280000000001 134.134 54.0540000000001 226.226 54.0540000000001H780.78C872.872 54.0540000000001 946.946 128.1280000000002 946.946 220.22V774.774C944.944 866.866 870.87 940.94 778.7779999999999 940.94zM774.7739999999999 398.398C772.7719999999998 362.362 744.7439999999999 314.314 704.704 308.308C578.5779999999999 298.298 430.4299999999999 300.3000000000001 300.2999999999999 308.308C260.26 314.314 232.2319999999999 362.362 230.23 398.398C224.2239999999999 476.476 224.2239999999999 520.52 230.23 596.596C234.2339999999999 632.632 260.26 682.682 300.2999999999999 686.6859999999999C428.428 696.6959999999999 578.578 694.694 704.704 686.6859999999999C750.7499999999999 684.684 772.7719999999998 638.6379999999999 774.7739999999999 602.602C780.7799999999999 524.524 780.7799999999999 476.476 774.7739999999999 398.398zM446.4460000000001 388.3880000000001L612.612 498.498L446.4460000000001 608.608z" />
  </font>
</defs>
</svg>
